1#0.08270062116722304,0.05287492573159001,-0.03692027943679211,0.011998739079362808,0.1566985608160062,0.24918668803221944,0.11640798464022904,-0.06236102920186964#8.112434770093808
2#0.0164158687124503,0.16603358881181518,-0.07661459220333657,-0.0778680570087979,0.02407889730644001,0.005390461770081602,-0.07592170487508464,0.006051453181332023#33.43058453171683
3#0.028013234091763917,0.13413185287651974,-0.13377543400842373,-0.04615700647966094,0.11462700223604078,0.285342702427794,0.05640522652782719,-0.11726628663732863#114.94394292981734
4#-0.0918706639634069,-0.022120821867098638,-0.06854062224518517,0.18657262127002172,0.046224486724878236,-0.24473713731705488,0.11288798354330618,0.3083641159311261#41.48322745966575
5#-0.09862930570516755,-0.06631077061346866,0.06567532489379632,0.17498994002966628,-0.02047652831787059,-0.27923534440735476,0.3089013772536229,0.307102230678564#46.4510736577391
6#-0.12195620010114548,-0.057558709347937775,0.011528062836023138,0.17201541538347587,-0.14017924684415747,-0.4021357227592922,0.19479186791645856,0.4717562875681025#45.85994272892261
7#-0.1616157162411509,-0.10026883620804372,0.10508621555470865,0.16384352349029288,-0.15944894428586937,-0.4123761925514739,0.21690330726326484,0.5321775100122478#156.12838171012834
8#-0.1967697562063313,-0.08085832651510183,0.10106652262276067,0.1663158332512408,-0.14671781960090938,-0.4607243897025227,0.2300411703105992,0.4288622502917077#80.56998230106299
9#-0.15821077356246438,-0.16436756883309503,-0.03165257145276125,0.39202760703056316,0.08889279915780095,-0.44332032780133285,0.3561557102773476,0.4269104620575536#208.73214663976208
10#-0.20286413821290936,-0.046201974702269485,0.07601391872691435,0.1880414586914986,-0.10476272522754344,-0.47732100358333895,0.26358177385698306,0.420084699624876#78.00064220965972
11#-0.10920430377092892,-0.003967306416603249,-0.0011363824379868465,0.1518204242902643,-0.12603921011531916,-0.4705059857824898,0.3135284426758865,0.5004891130305045#145.9322093004692
12#-0.05516791139453818,0.02783511980244085,-0.04063948393189603,0.09575604946844932,-0.1172216652529502,-0.49435925476636744,0.33844129267442186,0.545125326699302#94.0577546997229
13#-0.024391437284067383,-0.05253891122231721,0.03575607525663738,0.06886525112785816,-0.10110861656315046,-0.45660269193741876,0.3292269245542274,0.5362313427676881#89.60921362730275
14#0.018789380208020998,-0.09594495986305698,0.056839447795009455,0.04468161646926416,-0.10231421156557005,-0.4701465306985859,0.3009126946037373,0.4764515519010028#183.26484129473275
15#0.05733109413367719,-0.024321480762189193,0.013763119795016023,0.007990506279017484,-0.0800772016399759,-0.4121684633183552,0.3655179559987302,0.488648691974051#194.64934786591752
16#0.07729950627659264,-0.03623362386026417,-0.037245759109561405,0.03502584721692911,-0.17386717267584145,-0.37719093053141284,0.46241885950026557,0.3976486082880667#158.5656190224833
17#-0.22831867958728883,0.11401739890624259,0.13378358112990046,0.05313550189214597,-0.07822866664285996,-0.3778201192034649,0.023804129133385338,0.5636538261079119#76.1398750140899
18#-0.16897614516738252,0.1363059952714133,0.13439979704089328,-0.03195771796398231,-0.10639575468880685,-0.38021257339825404,0.05772670364840881,0.5804500968142241#82.83905899250372
19#-0.18569371279507368,-0.12356882086982154,0.12620192548620196,0.2613733464165311,-0.1127709150528237,-0.38798816645459794,0.18714284575147655,0.6777501945261344#86.55117910424252
20#-0.43850377908866106,0.17073221320390425,0.2971278143225386,0.05622080096243447,0.07081395070101033,-0.46918619410321627,-0.0017573931348009442,0.5665638631920281#74.6341728442307
21#-0.16868004504448036,-0.11085415129211316,-0.02246692255376928,0.32598620592162547,-0.01691593772731028,-0.49515520445970085,0.19769105887745336,0.658864576040895#105.72953585378676
22#-0.21352010410240638,-0.09953866307286162,-0.010113476929311822,0.33435147490508665,-0.03950072176356138,-0.5097946810198126,0.18314019482089053,0.5893388335369711#50.21733883366934
23#-0.5358444174481894,0.2039004406937887,0.4184539408449145,0.04149155578068042,-0.04748571719962456,-0.42705794947131925,-0.020446135402775574,0.5618476369811836#28.16434281679853
24#-0.5816755719509913,0.2749780975116535,0.4659890433715765,-0.0352403237008978,0.12313576415525271,-0.45686984146923254,-0.018005086831123576,0.635249307396357#26.559606124156957
25#0.08083740270243897,-0.08642528228723577,-0.10635974977722712,0.2651885629832298,-0.13436749231911935,-0.5824695616784071,0.26594702458985175,0.6036339562492908#27.702845443807874
26#-0.1337931665174297,-0.10064307846953902,0.02835652671609412,0.22351324504225406,-0.12102593977986724,-0.611068331329651,0.17261142429091542,0.703283546214557#78.61675935253515
27#-0.20645236401758038,-0.07471669467425954,0.07647008132175723,0.2182987768324701,-0.11039612353449171,-0.6584471041459143,0.18529461497205943,0.687403625010534#156.55997833839317
28#-0.011583469150549705,0.020179015451127866,-0.1877992462570714,0.1893296899417799,-0.14121361395731136,-0.5832873565644566,0.34393205902809937,0.7717180764648995#48.18642920158941
29#-0.11553930604330795,-0.11590879445385284,0.024374397316396054,0.22088812169884933,0.06065620139032496,-0.6128156024653844,0.0707547030864667,0.7127441995309887#111.95348321042748
30#-0.08577504632637442,-0.09370689254570594,-0.011206003997345206,0.21444219169154702,-0.009621913884026292,-0.6222215615347936,0.15769174716183043,0.7507430459785108#120.32488360275488
31#-0.0945318645066283,-0.12200078784277357,0.03768912187648068,0.20823559702632516,0.05725947866852539,-0.6118683855054806,0.10714101720998728,0.7646918023280088#87.61887311446378
32#0.16571742915516474,-0.11610311458263854,-0.18293350412358692,0.14708442916151612,-0.2642996645120738,-0.654880064614874,0.48173264401911875,0.7847842012999489#132.46450839313866
33#0.21771423653519004,-0.1598199151983149,-0.22589786997619526,0.17674766354530283,-0.33987350480437517,-0.6312235634395256,0.49711777520703004,0.8559781789791198#168.8008189175704
34#0.07501474586678779,-0.04621536379815294,-0.1272045948042939,0.1283524561374272,-0.22525074935404082,-0.6442279910136759,0.44962969579010914,0.8315482754142531#194.9338441401542
35#-0.16845966465357326,0.11019540239893602,-0.16985314246004135,0.2839673456264678,-0.2724387642196423,-0.7002935595430165,0.44639442432563675,0.8137406005023834#168.02207585322455
36#-0.13905983027184465,0.12165295738411962,-0.18705669579778395,0.26161622505384496,-0.2308952894238005,-0.7121456376508508,0.368011638584384,0.8397384986131227#159.9292886402403
37#-0.11902306297267562,-0.06049813703387603,-0.1666216491489365,0.3598081331262199,-0.29394920425171966,-0.6692473079020613,0.5373148071189029,0.7778146172792609#123.48578188096224
38#0.16711081755961094,-0.08793823948246685,-0.21970863061481277,0.16327718550936388,-0.2558178612371609,-0.5926702397485852,0.5375910535915924,0.7924691556488282#36.16330226426055
39#-0.14164628513931493,-0.1256545687669341,-0.17316034888074697,0.4607196878980734,-0.23502703112435303,-0.5805554664323014,0.5251350824427087,0.6633653460587793#168.70381759200976
40#-0.15206761941780472,-0.09298069832910025,-0.21899660837489626,0.5000231673143186,-0.31032709544139014,-0.5582008470431485,0.44190539979399146,0.6953196162154603#184.61315705011697
41#-0.0331505238017315,-0.04977228595184824,-0.38183687160223134,0.510377022997744,-0.35424899618886363,-0.6988356834573495,0.6410968652369624,0.7778007479414737#48.541047065609774
42#-0.02136568183706815,-0.05185320897075627,-0.3536651697609364,0.47375893413667236,-0.3410940692799275,-0.6835964023034579,0.7025072510330596,0.7533398687468602#49.03268990646551
43#-0.08294421968908364,-0.07080848315943278,-0.3910364141470887,0.5532353544407618,-0.2584212557081671,-0.7903230614217869,0.6462220929521627,0.7366383659971729#71.85409658495858
44#-0.025114806096198636,-0.03973994124584278,-0.32319632086700484,0.4279380005512215,-0.30962303507165556,-0.6930890354036556,0.6668400539937605,0.67027140896116#48.65416264861053
45#0.02792545257430991,0.010081038158678904,-0.3986184217366173,0.332136801878448,-0.3103608806267794,-0.5985933925068654,0.8592080290093236,0.6208858388176226#44.76649170592879
46#-0.07291252858792331,0.10744615289153525,-0.34697308690444634,0.3839636398158351,-0.38777193524102993,-0.7234252139180305,0.6152305553198325,0.6276016030229523#73.418095398155
47#-0.03724417746831342,-0.08263870493052629,-0.3736332794288344,0.49213545809637166,-0.37774228793075304,-0.7057280132619769,0.7292508166548813,0.830723594780116#45.69883882050681
48#-0.07921941842790883,-0.060417244682119946,-0.36928036737973147,0.5348844197287856,-0.3863231144894878,-0.7587527956494031,0.7060482015511814,0.8711520815666962#49.317774176995975
49#0.07968657670666246,-0.13036381671034944,-0.38752533237841846,0.4576581906300139,-0.25101265177361326,-0.7667928200544506,0.7993718099125472,0.6749333270882879#46.656651401269684
50#-0.12462013243632852,-0.1675129813084961,-0.2994374822751804,0.5889895901571964,-0.2308180851780156,-0.7507851045650495,0.6979281303539293,0.7385315766498394#52.08273168754977
51#-0.11064332748167313,-0.13561126586126865,-0.3428230520619773,0.5619363105084444,-0.4966450736435819,-0.756709950750865,0.6938869777016125,0.947563297774377#91.19054339668935
52#-0.04272026843199152,-0.18162952521609477,-0.4161801238970684,0.5827760821892181,-0.5584962637856998,-0.7090178513480371,0.7037368290819443,1.0299684267174067#103.64982142668342
53#-0.05005108343903609,-0.04107330571324623,-0.41187663520572393,0.49718537978387495,-0.3231396141524004,-0.8104238629100476,0.7070264001738494,1.0142254810875841#47.9926720333006
54#-0.13419268339818521,0.058985782635210066,-0.4570738531624814,0.5953090498025997,-0.3220134529345584,-0.8883001746881358,0.6237249469086629,0.7734739791124494#61.28387416843733
55#-0.22957888776681523,0.1202202142202822,-0.4804590525978164,0.6352865852083021,-0.4110115642350118,-0.859546299008088,0.6371817946095334,0.8559430972842874#114.12421423613674
56#-0.2594112351414489,0.10445808130735645,-0.44809405263827207,0.6734641193673521,-0.3976853124154688,-0.8708613496683214,0.5188595193501923,0.9506692241284144#61.10041437916462
57#-0.12523430562171595,0.06439130754334269,-0.4775011863411352,0.5956153502575434,-0.41165102083857324,-0.8600565327345805,0.5582130365089033,0.9226636924160778#74.58703314644383
58#-0.11211632461650928,-0.032901730991356154,-0.4518549848473848,0.6296293536521547,-0.3892426998484962,-0.8070466515962684,0.5234182471110546,0.9156950937682202#143.89819807478898
59#-0.07376502608777136,-0.0679906514716608,-0.4867273829795506,0.68254445481457,-0.3610799109771038,-0.7315316163181801,0.49831204426393233,0.8273665875897646#56.73050476970518
60#-0.23854602599871857,0.12668937379350576,-0.4744352223953739,0.5904395907114922,-0.47516151654492383,-0.7353632256996441,0.7524917380028517,0.8835893872925112#49.605738690435444
61#-0.2886623722280007,0.20842648028880995,-0.6301317214656095,0.7127302979115414,-0.48872398219337626,-0.9186472093167349,0.831782468200933,0.9025381017565386#56.804180087374895
62#-0.3075024853930511,0.16068215555465462,-0.5440094673551547,0.669676719949714,-0.5049948501303123,-0.8745469741392426,0.8866326932559961,0.8199358617849328#65.72604792198689
63#-0.44731254305117935,0.2616961924066124,-0.5932012684404693,0.8267684430288065,-0.5245373263619466,-0.9200852134567488,0.9720298973189383,0.8884395595883714#50.52316637326373
64#-0.4461276326491961,0.22417866004483988,-0.5834876107593834,0.8192110512811812,-0.49905094223323093,-0.9902454047612116,0.9971575884146477,0.8071857113820787#57.77109536329551
65#-0.329871448627595,0.2166980785501126,-0.5980471304184284,0.8049279698764299,-0.5326462207533669,-1.0381212161547668,1.018967710966964,0.7064243392363599#61.53351575990829
66#-0.33075326541876005,0.24024815895541365,-0.6294310978457359,0.8015924196496209,-0.45270480053625284,-1.0852906967790186,1.0714895893064174,0.7242467565945034#74.17521994803407
67#-0.34850513363111224,0.26285592792603574,-0.6855252033454853,0.8348166507051611,-0.48914198599650227,-1.0291746064672473,1.0201093332824371,0.7637662594054063#142.79612934386213
68#-0.350827436387798,0.3136292661346986,-0.7556851874624967,0.8975536498651372,-0.5865281537438595,-1.0564639352661684,1.0858028755370939,0.7549277213256762#61.63211268635285
69#-0.26756890585613125,0.3092354058683278,-0.6820788367289443,0.7013260598278586,-0.6952023257132791,-0.9602443147821195,1.055801602370405,0.8237584105222965#103.2494251807588
70#-0.21687000332410128,0.3094851064874897,-0.6635710521359608,0.6620027177240567,-0.6787900988725598,-0.9699611931644417,1.0809040923762163,0.7926006398712601#72.99057639357544
71#-0.2191276641150018,0.3282377444618097,-0.6946771598408698,0.672630894446285,-0.6448504671518261,-1.031938602699454,1.1429020138403492,0.8013336130896529#71.94633239053132
72#-0.19322907640650422,0.3343223557101599,-0.7268651924648998,0.641675763134919,-0.6349095135218996,-1.0316358616197863,1.131695719759132,0.8597712082285704#53.972918291017685
73#-0.2986832604968103,0.297886872217753,-0.6475608197877145,0.7397990560006332,-0.6421661795145066,-1.0355379674427734,1.057776465628221,0.7338097408491411#73.73803713053049
74#-0.24495618088331317,0.29650993525843233,-0.6134821113089417,0.6757657164022381,-0.6976030761595983,-0.9711281316295857,1.040801461037928,0.7534323286540539#60.744401865645955
75#-0.3783229322080802,0.2480732037705431,-0.5914006392816918,0.8038126518949359,-0.5109752099275228,-1.0783852480252374,1.075154101691139,0.7930493732651263#75.14983317671893
76#-0.25914762575858485,0.3722546946675225,-0.5975189327542303,0.5894597309460878,-0.619062600346484,-1.0350535848733942,1.1251952681161248,0.8777146700069101#52.51157959937024
77#-0.39122776715146845,0.27177353371921914,-0.6369468531766452,0.7914712564810569,-0.5281614694517823,-1.0269677312080674,1.0076024165179531,0.8858787278254281#54.24393907745737
78#-0.1622310277291223,0.3161577739293096,-0.6003023576019852,0.5375191521352166,-0.6523700642015727,-1.050651541213652,1.1279081639808357,0.7852362006452803#73.03343828661424
79#-0.2181433266469877,0.27434783171393745,-0.5838667205728474,0.5053503285331321,-0.5954389666523496,-0.9152917690797522,1.0592679480066625,0.7985652206598504#82.58903822360858
80#-0.1730208243580894,0.39343673939817414,-0.6956771977109713,0.5884622521124799,-0.6123702687576692,-1.029641836266486,1.0842019496627096,0.6904618896872969#58.54054959445832
81#-0.14664735190735298,0.3885046038576643,-0.6950497577656839,0.5768460452176677,-0.6376730551545248,-0.9802888797293724,1.0324594503272613,0.6064211639539147#73.14286461895192
82#-0.14360708859063187,0.1375138657963621,-0.47944996318582384,0.469962833128896,-0.530018618403176,-0.788675290056477,0.9576524259170097,0.8085224374932654#70.95604860082149
83#-0.20282005836290537,0.49435380932149375,-0.7419911524764692,0.6366031112181288,-0.6686055503387102,-0.9194668963595206,0.9777872902323423,0.6254734219571363#59.050502689156126
84#-0.1247078768463682,0.14633314013323456,-0.5217629057606956,0.48352919401065425,-0.6165238979463413,-0.7547897666679086,0.9811548219606411,0.7662241487395176#129.58954270467078
85#-0.22086792136739475,0.2311616776684755,-0.48160625339066904,0.45408758144847783,-0.6608265337526837,-0.8111438618064126,0.990083552528338,0.8361919090479262#92.73115276547587
86#-0.07711486730127474,0.45959343246796847,-0.6890753205903286,0.46868731785756274,-0.5228673811282243,-1.0236962376095136,0.884465201713312,0.8116659018988235#55.00667179693575
87#-0.1181927023648264,0.1738987392164544,-0.4313033083465049,0.43318872696606153,-0.8104362850467516,-0.7808531740176918,1.042137790974834,0.7459473554093377#111.30877028161783
88#0.06556424247873621,0.32588583440643076,-0.7285027359127914,0.46084145662875964,-0.44489285449037613,-1.0356149950828963,0.7923268386556559,0.7713913639380138#60.018517046338296
89#-0.019101292832190614,0.17722148167036045,-0.44457537782907885,0.3452154761869347,-0.828732405895013,-0.8025030260262931,1.1052838770857083,0.7035443205862439#108.31921568030091
90#-0.098251079084375,0.3683898866259375,-0.6117460417037803,0.4715762820942675,-0.42990378776347016,-1.105743992000028,0.7609232119553003,0.7910962900481089#60.05030867011276
91#0.13378562690653747,0.3489851365779483,-0.8307591977835375,0.4483948638311355,-0.2898911435135406,-1.0074171373012009,0.8967166572809279,0.7838934510810518#53.507139524862616
92#0.12184428379029084,0.366668175894489,-0.7941434797348695,0.37602606840593755,-0.3172285478542318,-1.0567160633952812,0.8592432635071056,0.7935565806155216#129.2547486183337
93#-0.03231013680349466,0.3950097218766694,-0.51858036447364,0.4001420070077148,-0.5781639221473187,-1.1583294042036798,0.5866044376869972,0.7455930843377251#57.83517150742385
94#0.16385904307696036,0.365017938890214,-0.8596732822174543,0.44499938895952496,-0.2736226863264061,-1.1079473991120916,0.7828240766386483,0.716978618167988#58.7775492415485
95#0.15797096517801743,0.3434274700962547,-0.8040105520162725,0.362940311693899,-0.05669022787529118,-1.0294716284589691,0.774297238408532,0.6007962572939408#120.4650710163741
96#0.17141921008271724,0.37522613529663607,-0.7435170311679922,0.33053302308422705,-0.046679877175784944,-0.9945251613749994,0.6893516208603099,0.5561501874764757#57.239883455150235
97#0.19144273510805723,0.3515684232313062,-0.7638020185496268,0.32908360529663855,-0.05181436368029421,-0.9656673543821294,0.6207381481583687,0.5733977158086097#59.76896431176165
98#0.1704883082401557,0.4154002757551322,-0.8497840273689959,0.38572630868121593,-0.42503156654433405,-1.1368644587549996,0.8032349056189106,0.7865665150397971#73.03736389296388
99#0.1086006700306119,0.3648815604262865,-0.823588163227671,0.43299564146273267,-0.251212188601123,-0.9702316654830191,0.7470359112280605,0.7070234700037406#129.46755095490727
100#0.25360416382015866,0.4614474860900439,-0.8763061712857797,0.35359420063487385,-0.2584050433346975,-1.022970087080629,0.5037465147111195,0.6812940004407187#56.30052534000601
101#0.1370431073523654,0.44406325522086126,-0.9011918133588752,0.43827135062440226,-0.32104902557186604,-1.1801053284332643,0.8638290565637102,0.7403650014989006#60.1042872321106
102#0.15885161953106908,0.5896586962470792,-0.8935953592059304,0.28476880744766997,-0.3014020611902485,-1.1039275764927747,0.7378089791061914,0.816729494545965#58.149546484392225
103#0.10346533396860902,0.6809062336985511,-0.9493746830937584,0.3072114922494075,-0.31800764162674894,-1.0779850666165443,0.7754940663335621,0.7427087752858653#71.28121780161247
104#0.21393445892028917,0.6014446390384437,-0.899449619154365,0.283872455748244,-0.33046477094660237,-1.060864526515501,0.6934270610281678,0.7197727975717028#54.839800120359875
105#0.15406227362927508,0.6650795479498146,-0.8798501072861666,0.24454207458819202,-0.3177428420491405,-1.0165328097177975,0.6417916421245243,0.8032510138329138#60.253781881063354
106#0.22837192228103326,0.5677634008706728,-0.8796449807489236,0.3901608672814899,-0.3002345537770055,-1.2519564081418408,0.683090750702455,0.6278691943715616#54.43408490811555
107#0.25446661432138173,0.6500167479381915,-1.0472125370752083,0.2794503076895073,-0.3616501139878744,-0.9316513999328135,0.6951937549848972,0.8568863559400243#54.88180181731011
108#0.1744198259954157,0.6946663832123595,-0.974827790609252,0.22112349511444554,-0.3506840892108781,-0.8486646355270281,0.6440440615280391,0.8533834848544904#58.61629829430812
109#0.15183190756612577,0.4658645389702715,-0.9186959435960294,0.511340916781631,-0.2852706880301261,-1.166240553098455,0.5860076279206311,0.6961032166414953#56.073213560617354
110#0.4646011637840034,0.6226002388033562,-1.1724824928045654,0.25521695461540594,-0.32342677874398673,-0.9698296544712566,0.6839097466248093,0.7947931477096228#57.52247976713514
111#0.1590679866017425,0.5240069580522349,-0.9755466556280938,0.45293666739322125,-0.1763622733167946,-1.2026799879685963,0.6010106318605511,0.7798973070234244#59.733374759323226
112#0.12328299587645161,0.4884436045539194,-0.9051297248572265,0.44673602996385514,-0.14212673689331642,-1.1517933427516254,0.5777622199229073,0.7497845652066589#60.03901743262084
113#0.30987889782833256,0.48563854227315617,-0.9572708224887786,0.302521233190212,-0.11852387800173259,-1.2540655357536363,0.6411052890057352,0.7259647514728855#60.104507405688544
114#0.2575698312944148,0.4906482828834521,-0.9637744160016697,0.31435477651342153,-0.024188443898555664,-1.1993098282694519,0.6825151550617317,0.7240213026886696#126.02077199499988
115#0.26893926272779994,0.5243761819567068,-0.9957746374162132,0.3712936655363556,-0.06197167371107147,-1.2210862262475104,0.6454550536665798,0.692182065975357#59.184055858787204
116#0.2944955096161623,0.4766696718064302,-0.9394192554141348,0.25326253987364256,-0.05823287690022158,-1.1921682673869154,0.5698771004348246,0.9746927251982489#132.2897629351153
117#0.3322090443939575,0.4783833129062739,-0.8990935518941477,0.2144653079277534,0.011227706338857335,-1.358001729962491,0.7261777278683962,0.66606479559515#58.54837298467908
118#0.36067148417184414,0.4353344038663728,-0.9106738703414148,0.23804885131595363,-0.018793381103840802,-1.3222835621378106,0.7324370933889441,0.6962519059271312#58.75581942728231
119#0.15370431389621617,0.5681420951029755,-0.8983389393843261,0.3088605071498727,0.1069902053806521,-1.4808264908368212,0.7986307581284616,0.8448517802636386#59.97493286119568
120#0.12851852231607097,0.635410634499675,-0.9315339179800803,0.3020844764509159,0.09001274059781303,-1.5216376971350096,0.7442390482453445,0.8260552942757783#58.611076705532106
121#0.10220632698467576,0.6374490944864052,-0.9266863392156236,0.2909018517229513,0.08877732692095147,-1.4845703489216713,0.7625334809605226,0.8530570959592545#133.03144300711054
122#0.41162690127903095,0.42464720379809073,-0.9669048814554647,0.2714892800154776,0.0319254922726611,-1.5128866109654462,0.5809326823811566,0.8240060884982334#60.524394835657446
123#0.40816475671041597,0.19003719416375836,-0.8726440482453223,0.348363883308074,0.05518762784016772,-1.4646071171427,0.6086269113767746,0.8362029524660902#112.47941247185031
124#0.4210832878028045,0.1572795954862736,-0.9239225147397314,0.4194857530072335,0.017969651543870556,-1.4821870479512391,0.6024220195134852,0.8531936989789289#72.25135342043599
125#0.4083949428894556,0.2329389386117432,-0.9171504343308132,0.37405780643232844,0.017651373009297852,-1.5706221665505453,0.5105131373378387,0.8698706700680147#74.05722355326853
126#0.39369340444179274,0.2023064779478553,-0.8308308670325539,0.3606751528584126,-0.0018188193829217839,-1.5769295900584257,0.5474624417026659,0.8249260995103946#61.226792660942806
127#0.4167299845871643,0.1226902869437276,-0.8490655417272123,0.36760670919163435,0.07331925322949095,-1.545039567550259,0.6905629538253015,0.6964635820391099#99.57197432868068
128#0.46422353618466056,0.06612074640122709,-0.7990669656787097,0.33512075679977793,0.0258764518776105,-1.5385469208377816,0.6833569479880907,0.7429580217989868#60.159996399355755
129#0.4006340268742272,0.05537768163114229,-0.7684416323780706,0.3651695297553951,0.038261345586685966,-1.4803632549862946,0.6151362779266296,0.8422640312556073#130.74216974904365
130#0.28554703352782873,0.32834515311561574,-0.9581091797229518,0.42349139187183255,0.16289680732892586,-1.5184249591523826,0.5906701327260356,0.8450969850697434#98.58825784079683
131#0.4153896893639765,0.1373703117135732,-0.7838645951316022,0.2852241984136154,0.2512551753452487,-1.5117334876072506,0.8147600509643934,0.7244268503134416#150.218185478322
132#0.41075940048409043,0.10452549914055999,-0.8187234525316908,0.38847444471759013,-0.21632856688707142,-1.1837381618975662,0.37655393380856744,0.7034933411237043#74.48190224458065
133#0.34169942864857816,0.13137127142063457,-0.8131652389333626,0.4099661589745611,0.032929157040149815,-1.2038118139867082,0.3653309481062424,0.7147782096623038#99.72337681175686
134#0.42841923239851637,0.16857065986923003,-0.6460156462659941,0.10792329015872973,0.2432188224207597,-1.3714297470144963,0.894424036474122,0.515761722820985#145.9439395841333
135#0.33716068726109016,0.10046491455427907,-0.7974054734085828,0.4499064372666076,-0.022124866065382894,-1.1763234801557023,0.38196633221513815,0.7843845174598197#61.5162097730731
136#0.3509893589471097,0.17333060578199533,-0.6067340357768533,0.14890354578571005,0.2719730481976213,-1.4360809041311,0.8643671874210304,0.5977302873833548#147.13109021187748
137#0.41053657776420377,0.14652574776370483,-0.6154986321399397,0.11021558200928183,0.213411096066213,-1.4712852227963646,0.9202056212677363,0.5482471115241837#121.72833837494204
138#0.4649887932728795,0.10612154512896424,-0.6271247399579806,0.1138699590419176,0.15036971486601386,-1.5291073299860696,0.9590476681697637,0.4161691139650611#107.76288709350104
139#0.4275727644944383,0.08654941938777684,-0.5841627631571552,0.12501953278713754,0.12964033752668128,-1.3963091802002214,1.0412313713442882,0.435279548744121#144.60575060662123
140#0.4058196480414621,0.10891447245820675,-0.6016448411738163,0.14526786222193339,0.12463177024708783,-1.3874112228687752,0.9897450695619259,0.4805523275135291#146.7647718681302
141#0.37855477491701944,0.14987834148392468,-0.6968302343123872,0.23557221524743271,0.04816559427223871,-1.46082816320178,0.956593112339737,0.4933633807942657#119.46035378570392
142#0.4377209431932013,0.32877806413746213,-0.7999090106724573,0.1829674769766418,0.009960639721054813,-1.6921118991885806,0.9923965608318599,0.3550043698058731#59.759125510214034
143#0.45682517577792875,0.13826328921781306,-0.8132586640482148,0.31842290224372455,0.028570006773410414,-1.574026149157478,1.0205724807041352,0.5435241235350848#61.12247035519957
144#0.4584122284589218,0.20900233940116247,-0.7664083135986162,0.16158257489089628,-0.007408535891710678,-1.3931450585245688,0.9684709410480149,0.48189687137971404#90.18392816545241
145#0.4312844399897205,-0.006997022062675912,-0.7316140129648642,0.3510265839652119,-0.04076783272001226,-1.6461053570799002,0.9710951557671976,0.5196404175940547#75.15511350518985
146#0.3906667382856236,0.2927080235789924,-0.782805397221669,0.19426057390624163,0.22431546644606404,-1.8356920488264197,1.0306079440125313,0.3731828787589599#60.468812940645684
147#0.4359657641612823,0.28113209583519044,-0.8048393146864513,0.1851871304288141,0.20355489726270884,-1.798769016724411,1.0376952809987912,0.45481855738635213#73.57434379654244
148#0.25492922480897745,0.2522003311981099,-0.6560020799766928,0.2488400225140574,0.1302560051415388,-1.664497333173952,0.9891720781873616,0.348098737863882#73.58672102570539
149#0.3568982319159781,0.21111070428230863,-0.638707002954093,0.19396915777021764,0.0026870214758835734,-2.0646308202517973,0.908670855639482,0.6124390929435092#61.887611774178644
150#0.3601190771283111,0.3120571553900954,-0.7316279869157513,0.20331244729260087,0.03600879460398857,-2.080770094092335,0.9394971506400757,0.6116060013667781#59.71054825794804
151#0.20745856459315298,0.2859345587971004,-0.6508164734197219,0.2669879543812733,0.159865797145186,-1.6497174104622094,0.9501939673485171,0.2905023625289228#74.58202518489246
152#0.22123734014579258,0.29639776793410916,-0.6232420465492252,0.177519353519349,0.2313240206330195,-1.448763061760396,0.9669801472842809,0.46707843931585236#139.11540857225765
153#0.24195891556179983,0.34984544493981684,-0.6409612619894787,0.132866811514413,0.22480211593069935,-1.4829475015589482,0.9852238682611244,0.4452533169643016#129.8072155943644
154#0.22706369852692707,0.2630212591303496,-0.6330642486646365,0.22013356962382613,0.3774298475553943,-1.5389358632402805,0.896381896911408,0.507666777613363#143.10078942181863
155#0.1626971219985771,0.4137769246628608,-0.6721559732601954,0.17385991451193128,0.23002482792414147,-1.4457648143360546,1.0351905287040466,0.356917690589838#111.99245406713354
156#0.06847690604325873,0.46694507675403374,-0.5178130027390775,0.13341485173974946,0.22562801589904352,-1.5825147772701713,0.9751029739538516,0.2680353047980378#59.81384886180996
157#0.08464291002495565,0.47714965316488295,-0.5595507126577698,0.127877127284283,0.2338812802314604,-1.5688993693046156,1.0537648740149272,0.2036892874772423#72.99798694543394
158#0.15458055662473114,0.5318352105222266,-0.5708614038134734,0.02531245404813734,0.3837979927081645,-1.7089153042399667,0.9162171078799645,0.3268249399949358#72.49793260623228
159#0.14057469567777306,0.5258861011908801,-0.5805429946359358,0.030303227151668246,0.3776517994320592,-1.5225587265191682,0.9185019614863127,0.4077811078187666#72.09105734777374
160#0.13290245623064306,0.5778050355213742,-0.6512167133718725,0.07058667104869587,0.3367772749461859,-1.723933362150915,1.0148277100051255,0.36636024295187636#78.75479683769137
161#0.21116291053930836,0.5524053413444082,-0.6152709817605406,-0.013390385497743216,0.3329622499224845,-1.4864130278855388,0.8355780074607224,0.49426772083822024#58.09046708405963
162#0.06541472322958697,0.536518401491925,-0.6018773730330925,0.14108759810643243,0.3249403860779773,-1.8040923233274098,0.9684449543486798,0.3822657918887002#67.72377066089581
163#0.2837429598845125,0.47458716158897374,-0.6161688632732256,-0.02878924618991597,0.33538848151950673,-1.7061619927723228,1.0027535986688414,0.41412763711635997#71.61931994787746
164#0.19899463135548157,0.4652441063043911,-0.45058590486012906,-0.1089673693645773,0.3945285317515398,-1.6328810229371735,1.118603668039087,0.31132591900500073#72.67992119360679
165#0.23796640548969303,0.4297941974950103,-0.4198445788289821,-0.16346560955282918,0.4124129911581326,-1.7156523275330335,1.1785555542506245,0.3710708431023394#133.52072065003307
166#0.16157403750177374,0.46228616404198214,-0.4441970239934867,-0.08090482644700811,0.39261848260456444,-1.5601166717215234,1.1049962844166912,0.28545156230989577#72.45128146005663
167#0.07621849374725147,0.3884871197187848,-0.3786075613705962,-0.07579148464825533,0.4141211159416193,-1.5220531485019937,1.1397068385895446,0.29299536468426474#141.06092451928944
168#0.08395827496240567,0.5428132055458845,-0.797042518722865,0.34001963900487886,0.4503524034859421,-1.7494572612395982,0.9750444624478607,0.3504124766529485#57.837918072658624
169#0.10219261762112097,0.30804360401163333,-0.19336198515074,-0.12268074667422509,0.32559011895468354,-1.7635741322686493,1.276582415336087,0.4344909502046059#72.88717321636518
170#-0.019942322058775254,0.6258643741873917,-0.8019579733099818,0.2949568953583684,0.49952006775924473,-1.6647565117937018,1.0344743826246572,0.34604848759731577#117.18415042828079
171#0.026924679029932286,0.5937696617578881,-0.7804454492205161,0.30535217012142596,0.5542183480639623,-1.7156834888666657,0.9809343820221217,0.3742344170640017#56.36258697214543
172#0.12445276003947897,0.32253851798118743,-0.2892156106847241,-0.057807482373179744,0.36734537239827875,-1.9375960186450876,1.4081976060262869,0.38480621206270205#73.7324705039035
173#0.10990570049825847,0.2901509408946856,-0.313850284650572,-0.021936044857297547,0.42441176214706133,-1.9479818222987337,1.4162001149975387,0.3365816019107514#126.33542854339012
174#0.164656770228731,0.25328657913419733,-0.276404751011891,-0.06465421923510957,0.4205526338626879,-1.9363419655000447,1.4161262129894188,0.34078287855376443#158.9757217110074
175#0.11026229666031558,0.3025690121485206,-0.27407717424754285,-0.05462095791239063,0.5280389373786836,-1.856121212724435,1.289617806064369,0.2697542030712538#162.9670633123163
176#0.25309801273685395,0.18006183491214128,-0.571308546499118,0.20160985713606674,0.46816062843855966,-1.634959883090134,1.138151936825799,0.23560055522862244#144.7969601407289
177#0.2896096863053543,0.21394524475194399,-0.6174827106985947,0.1833819444631468,0.47809431768671357,-1.584962699669535,1.0677100987758377,0.1894504328669974#134.4326230363775
178#0.30309820581082914,0.1978658670181552,-0.6642497578102835,0.22054173872543073,0.433811758199825,-1.5528408008756902,1.121547806697098,0.2068003338769842#136.48056264687338
179#0.3351122591343749,0.14303735817157104,-0.6669049706001204,0.252351482081515,0.41841790183340066,-1.58106289313196,1.166898327693747,0.20121388160445278#72.73146665575393
180#0.24447856818613395,0.17365024896505238,-0.6614399992421784,0.2155261107843378,0.36216210761075024,-1.551491505434847,1.2306914942279052,0.3056037090296949#78.35216669764914
181#0.06231990739185695,0.3687489860802609,-0.19367731426828097,-0.13642350454198693,0.4894534269683964,-2.010561601216937,1.2657102651567362,0.1975373379587608#104.71774940322699
182#0.10606928426701849,0.3466068494195115,-0.1764347365943792,-0.13653293870295982,0.5603650648569487,-2.040304928328612,1.1507055720367003,0.2715335712848167#60.735718427811726
183#0.09746937210889596,0.419446915543457,-0.21311947711542445,-0.21101263827424777,0.522963045098554,-2.0089385220499483,1.1584151005889973,0.38225829953271856#107.1865525023663
184#0.16489163721928107,0.44438679941590753,-0.23704896565000003,-0.28615728792837813,0.6862897378801155,-2.014999185465492,1.1380705755270724,0.42940800332365386#133.27417782627043
185#-0.022021370006784398,0.17761884412562406,-0.16748228840297824,0.08628668167744555,0.5234251708669783,-1.8782189160685465,1.0110855394498406,0.14885052941412816#100.07505548578862
186#-0.04256333485826995,0.34115669199330995,-0.2931512981760987,0.09219516654183761,0.5335098956922966,-1.9914181465436678,1.1133560247465684,0.1704609364944523#72.68116761226065
187#0.2534815098385476,0.43448108429353755,-0.2472841433901175,-0.3636312483872878,0.7809633586245674,-2.064356503965298,1.1636319614701238,0.3415553375370241#129.73922878013244
188#0.2734353754939738,0.40936810050858463,-0.2975543626527755,-0.3154422098082257,0.7969917124791178,-2.0511117741749536,1.1693380670982771,0.310630365816763#122.13429011460383
189#0.12000968076648014,0.1544600811044833,-0.2488811469684427,0.023036388654000487,0.4590881584194425,-1.9883835868821638,1.1266634041681012,0.3823569335679611#81.62340809837036
190#0.1660314395006975,0.07578464944468909,-0.19664796729422235,0.00795344745116513,0.4979326970590891,-1.9827434814249814,1.1994013097028202,0.368021620501663#147.61293744552995
191#0.12143878424884319,0.1047476974425911,-0.228403124792121,0.058902194632830585,0.5126363177101052,-2.0195100665872743,1.2049792355673796,0.37428667145960587#140.58164832893348
192#0.2600416108890659,0.10096190743861475,-0.17008648567178766,-0.12886208487567938,0.519707085610012,-1.9605196640003866,1.2398619749435835,0.37689966267156244#160.01043898062568
193#0.05149169677956226,0.2969379434586083,-0.19805518166790947,-0.06486666503786506,0.5270767018525273,-1.9841313106158995,1.215829937589329,0.41156092115017506#147.0021277130369
194#0.13846003498470721,-0.06923540923750486,-0.08184871187486342,0.04392265951115732,0.38546755245316394,-2.0006729678603943,1.1895361186006557,0.47813592467792343#160.75231590676756
195#0.1315789776565922,0.05425249937048483,-0.16596713746582586,0.04030726573871178,0.5091901616149173,-1.9916901575517951,1.003165622253508,0.4279717320379557#164.5481689588019
196#0.12710816048519283,-0.016622814058371488,-0.14348951914254052,0.06748460694202658,0.5854020533741254,-2.049616494150856,1.0203201154529729,0.4931889868672662#138.89772853080007
197#0.0519725920060804,-0.11858131737699877,-0.08263325404135394,0.16326887369574994,0.49602487544974494,-2.0694079590147734,0.9346248675105773,0.4829472056367206#163.7288338067315
198#-0.05733479318198413,0.383831571091379,-0.15378935822918866,-0.05686726661528077,0.4477732582322174,-2.010773595742314,1.287147434557457,0.3407080837495201#74.46937687162678
199#-0.007542177383761478,0.3996438878990268,-0.18891023118770195,-0.09244725635774804,0.4922988253964471,-2.0777418070713467,1.1292000017371622,0.48187429733501025#73.32626345395215
200#0.023131584576194738,0.4148219306092114,-0.18795461116561046,-0.15032839948383425,0.4918470441000587,-2.001046950395909,1.0253492554497365,0.4652160838003798#87.79020373580224
201#-0.04700628036265318,0.43383286687498723,-0.3179131285040504,0.06204683941790721,0.5285956649871925,-2.1805150310847123,1.2006413913029668,0.33277398422156174#72.95726861548926
202#-0.07512236495247049,0.34525771622587614,-0.20369731909507716,0.027870838907637793,0.560036680028219,-2.1773750802830887,1.2790234064518065,0.2601008385043224#100.28395606239103
203#-0.0554589069371012,0.43423379353106223,-0.33016031824270725,0.03484726328359823,0.6483156688027801,-2.25514107188999,1.311879553349619,0.46920075118768745#131.4649999261859
204#-0.14434289792693197,0.4848522502085107,-0.3409454960923209,0.11287792881148885,0.5986769929311703,-2.2025898274496556,1.2594361511369583,0.44169812716970225#72.84614703494096
205#-0.015070548116582712,0.278404667667974,-0.22925626335660892,0.06027815512399851,0.6622666767713338,-2.2927138456165705,1.2627259747681374,0.17734875881810575#73.7561131326473
206#-0.20979008108303537,0.29115779228881955,-0.08435707893234215,0.10874554221820888,0.7153386388132115,-2.2236333585396175,1.281674103555567,0.21021829959502403#74.51735103441976
207#-0.26326212722121084,0.30104397459426785,-0.0907812140873971,0.12932242225836757,0.5586832230661396,-2.1451824610561974,1.3754838973780465,0.22232463438173639#107.55456441777832
208#-0.22396759365359575,0.22006203684024894,-0.011425300691780896,0.1051109955082088,0.6260583721222625,-2.100076049269189,1.385277011320381,0.21188055246816986#77.23770662222083
209#-0.17048784258004152,0.1424840155481255,-0.045807887450550755,0.11448148564240829,0.5708808470084303,-2.0631569271640022,1.3738727103060966,0.22298999179563453#86.7176727181405
210#-0.16489588161007407,0.15021641850488915,-0.09863413143449357,0.18243871082879198,0.4887565118836616,-2.0548721640477847,1.394378969678013,0.2164224060704516#165.21075399618792
211#-0.19609832515146372,0.1249142919854416,-0.1322100971355672,0.2522808146725207,0.4340833360708445,-2.07289301784021,1.3794904141205295,0.2681800930117537#108.41517970990634
212#-0.253702253062074,0.174177316157297,0.09049344537122836,0.05442309406541058,0.6795902917808787,-2.1806988532392637,1.3177858185805549,0.13538061681077174#128.23192321774383
213#-0.28188560910466176,0.21238016875221602,0.07175127121382889,0.06417804355836182,0.7706758426416999,-2.0554390243870038,1.3591910110718048,0.2430245577553187#186.50372301229407
214#-0.3533813514683506,0.22340784413747874,-0.16581366384939916,0.35721485858602575,0.6461410959068056,-2.247437707645306,1.4479160685266605,0.3234657816406824#138.21576633315308
215#-0.258818122652153,0.22833157727003076,0.010170173964862854,0.11165012486903536,0.6918792733818663,-2.27597748534404,1.2978231383472891,0.18329772279936105#74.45215853286807
216#-0.34794486170491296,0.22483796661403077,-0.15948711844480434,0.355975218146697,0.5617903489025033,-2.398647981091538,1.39173759369196,0.3981088964262297#133.43311870611322
217#-0.34842890524137143,0.22964641663564794,-0.0721995563695966,0.2573921034844179,0.6002148539652015,-2.298199678326083,1.4848147127163374,0.402727726540689#154.06836316478245
218#-0.3259826193482436,0.18034574880388732,-0.1534769247398751,0.38345092337407455,0.45062287102475024,-2.383490888199388,1.4099615603689293,0.4465915994212968#74.80203117943026
219#-0.31378269137701165,0.21626633278221424,-0.007976289250607657,0.16179129439697953,0.6887495879141478,-2.3502515697328903,1.4920200102882413,0.4670161073139506#134.26258572382255
220#-0.23688910848872738,0.3174471094835077,0.18587529531253652,-0.17555062207090694,0.6005523851090121,-2.2702985937732376,1.335310114458929,0.30333125751435835#124.02447906373418
221#0.01785815541269956,0.5379664267859794,-0.10278757872988833,-0.3443299742106809,0.6746738592029131,-2.1597290737843444,1.3097820305206418,0.24025194827894397#116.70125998975897
222#0.015958458957778386,0.5607222739720177,-0.17500798942212026,-0.29670908569429805,0.6549605388048245,-2.1536578382718137,1.3158049709720359,0.27781760812989675#112.38862775095646
223#-0.21605979869132164,0.31654757483199286,0.14331547854838017,-0.1452709007324149,0.466543937712229,-2.059535482012422,1.3398516271939862,0.24194963548643625#145.0991853630831
224#-0.2448324062774057,0.336855244495143,0.21787547108150454,-0.19851883447229343,0.5123275807141285,-2.359650513067834,1.3232810934702146,0.1697014146152889#84.9559515989393
225#-0.3437812132499975,0.3882513509032913,0.2284534337364844,-0.16872537901015264,0.4511928304019567,-2.0900544455375623,1.274725279862386,0.32051109043378717#111.62420451738305
226#-0.3072377013749433,0.29079023457280023,0.41062787107763943,-0.2954158381037051,0.48514684078714815,-2.296326060256044,1.4704442648360678,0.17064776469792298#125.50236743288292
227#-0.2806259426781096,0.42843685881348953,0.17916449476732793,-0.21908332374450268,0.4653713684492907,-2.0000898762744344,1.4385897347993437,0.18025225512881052#140.6332947953306
228#-0.2786398734538485,0.47597411054343286,0.1631358169018116,-0.23374678562972684,0.401424030863056,-2.0648721416397136,1.4320476324180014,0.24068531598019635#73.86333115920817
229#-0.12113091675995624,0.3736051070282758,0.09428327047283606,-0.2522869955214998,0.5316439949788978,-2.0319663530848,1.4112321436828632,0.21258971746302335#137.02598806973003
230#-0.18745040727275172,0.39912596998402583,0.18999382230873485,-0.2761601841463083,0.47889146091972207,-2.1222433517821355,1.3510378573046662,0.23787842961931177#139.255586827779
231#0.08733487160310016,0.378362194764823,-0.10334888029988903,-0.2432290199536918,0.6210383617389188,-2.169294143190466,1.2263331152130232,0.16122196091930668#114.2330102403366
232#-0.18144768510909537,0.33575516511556375,0.28477676507108435,-0.29725007587572455,0.43869528358466814,-2.1170951774025046,1.2310738458563095,0.23240368029110425#161.38685234840426
233#-0.2599658188538913,0.3900909967670621,0.23777547877208868,-0.2889979724735993,0.5121819000163779,-2.1068908162026814,1.4521504769599978,0.3346566909917732#135.9182650489153
234#-0.23581781378962166,0.3148127024315175,0.29581000142804037,-0.25389666094220487,0.5020041662335403,-2.126893606290009,1.2136189285969403,0.19366692687981074#133.99292026417154
235#-0.21525943992158697,0.38833537108138005,0.27674649340270774,-0.31039798960824533,0.4395478373020423,-1.9812622053933284,1.2975031022531973,0.10850842413035414#138.99467016521547
236#-0.2422790678010984,0.3854318734949829,0.2980647225471314,-0.31214369558600047,0.5284359747159673,-2.033405337094421,1.3149449523591945,0.17692952037475052#160.68260660029244
237#-0.2511003754164815,0.43114180278782754,0.29515565648212017,-0.3411766118868428,0.5675124274295956,-2.063023203366861,1.3914951958078037,0.1612419176681308#169.29785454765272
238#-0.219394731908967,0.37960825583661545,0.2632443926294361,-0.2858013620254481,0.48631252726631685,-1.8172385508304538,1.3462973306704618,0.08148049604504419#187.58843576905983
239#-0.23823343839697542,0.4689034577705308,0.27105061004194875,-0.3685374997075831,0.48714667817339136,-1.770973029400826,1.3824061689558382,0.1500078021102798#193.2661687680487
240#-0.14642163681888648,0.41756416590493217,0.23321737423660718,-0.40161926678618026,0.4715248254146211,-1.8460319157645688,1.370780879710689,0.17486828765573098#152.9635216153288
241#-0.1376824581870533,0.3933283239644452,0.3040341288885364,-0.41543265648500016,0.6033371387682196,-2.119844153957722,1.4596155369659916,0.18393896882169297#202.26018028751596
242#-0.3606363912758873,0.5310501796740825,0.3101834911990049,-0.3565964784491645,0.5672915508448838,-1.9235526775929117,1.5321252699763719,0.2248061633909773#189.3231552194892
243#-0.22633446943267418,0.3948487729479821,0.3879574501596289,-0.4174809325515806,0.7037578387878862,-2.1082293910534076,1.472631540273189,0.09839427483895495#203.42157100391518
244#-0.1719136077653431,0.32611800185314216,0.39055203209575956,-0.43205802308088165,0.6926923738690448,-2.020284761922454,1.4421355829566673,0.12072961478363253#190.9774239258231
245#-0.20396768675653512,0.3498771561855681,0.36097646546720386,-0.4171140799262573,0.7454808203409178,-1.9805169379672294,1.4913617364118787,0.05559788501848509#182.7546759523997
246#-0.2574823963859687,0.4616167764746103,0.3077692701994605,-0.38655963824498313,0.5702750664540597,-2.0614235233494087,1.3756761322317081,0.353805893819025#184.20286532070105
247#-0.2730588832569483,0.5200765048744436,0.3155479642734338,-0.42645615822813604,0.5897436994069363,-2.083944192140468,1.4096895803732818,0.42249139857846535#193.69597427979247
248#-0.3486761401567045,0.606263113181096,0.2556242474819137,-0.3944971593692182,0.5426181032426793,-2.0898799611724015,1.4642074874882753,0.43914793731309737#189.98476296741856
249#-0.4101052411009949,0.4929181753899153,0.35372791458264047,-0.29144723093401975,0.6853681757231497,-1.9243210338789027,1.4106343124366685,0.38137434285655303#193.33551664512558
250#-0.37215554921820326,0.5154369243636964,0.3390647990381754,-0.3320769193660544,0.6877959989633036,-1.8819520145408863,1.453192005030896,0.34631895875947216#198.37558912450936
251#-0.428215007965535,0.4851334355015243,0.43315157611668204,-0.3188419076698877,0.7661865114941899,-1.8395446156872473,1.4879976189681072,0.3404958771066967#191.47875754384586
252#-0.3894177759824637,0.5567050804363208,0.35991646331209753,-0.4136448727181611,0.6159284377650429,-2.048981688024708,1.5404625963048553,0.2709160480672919#190.70460202605113
253#-0.3504592488980033,0.5143279319486223,0.34451549897196154,-0.3337197200304424,0.8912550391267798,-1.9106795214753045,1.5390523723326672,0.4200374413919349#191.67723487466097
254#-0.17517294203989225,0.47480081884779124,0.3583906769379652,-0.5212150639613125,0.3883532314513562,-2.07284984615133,1.44961611344178,0.48767032445964054#199.95594797992806
255#-0.15446260077710325,0.5148750027737248,0.36158176240107937,-0.565202209531934,0.3920742631931363,-1.9943290926303372,1.3891586984435145,0.49958857348427155#200.06751858352246
256#-0.17580675248606056,0.5264050197815985,0.33971983187025406,-0.5505353182381283,0.30921955830216996,-2.0234201695118417,1.4576239382000244,0.5903912761272545#213.76052141665338
257#-0.21181756940719285,0.5249159375427537,0.34943788963289396,-0.5054854823356636,0.3719688275078889,-2.125109775715645,1.4248171687405895,0.4789116350488249#1.420634273193
258#-0.1905759498772854,0.4214703069473842,0.36652823916662974,-0.43964415027831405,0.26024111093448976,-2.1491307016349244,1.4001622013179968,0.4074527161668396#213.83926387213995
259#-0.1304037989788178,0.4848510804071187,0.3848464375390753,-0.40870160313794685,0.09225343470133557,-2.0735992265257286,1.3590814902708448,0.34250333350061596#77.2908516213522
260#-0.2060774121790466,0.45016139850531006,0.3950418778513167,-0.5004735220118753,0.36759762222763104,-2.024747218243222,1.2898082885616848,0.5134478064423147#232.3730548017114
261#-0.19736559432432674,0.5086983791282853,0.35908194924222947,-0.5473223854686229,0.4515011000560897,-2.1358127323346494,1.311302350074425,0.5904342395678079#214.75321156941186
262#-0.37147634280681724,0.5348684094600133,0.5447519228119191,-0.5300952010732124,0.3018495989261394,-1.929303097140773,1.363723545214962,0.4780408631901479#238.09239702463302
263#-0.3406783870546436,0.5025994400788396,0.6181789070272399,-0.6221117788925582,0.39830888151397587,-1.9591137443428897,1.3024682018166311,0.5325928349587784#248.56411612000386
264#-0.3374012656021211,0.540990846747883,0.47017932541949964,-0.5377744265918633,0.40337083397517043,-2.034828003283893,1.45364926946717,0.45726097859955406#231.88022340899093
265#-0.2787503765651338,0.5383002299024553,0.4949860753827427,-0.5749973297652613,0.43119702727007825,-2.09545435239487,1.3177882173869537,0.5500534978886166#261.3996603877935
266#-0.1965487462740776,0.4487640735309155,0.6079244708429601,-0.7000462029431805,0.4166299541870763,-2.1083951197706825,1.408276419630395,0.5602454782235005#238.12288739114123
267#-0.2620011710298366,0.6192131204767028,0.42840275030434505,-0.6186729612926727,0.2967465188316682,-1.913581976605067,1.501869161282746,0.384964142556956#235.72999036134127
268#-0.1844500687839578,0.6540268397576372,0.30165268878561147,-0.607887773154755,0.2662750271584046,-1.911775986462918,1.539625963646802,0.3272194465054631#227.61368621533035
269#-0.24283455785349983,0.6420395841088554,0.39873590413112736,-0.6267542823737267,0.3116620726768914,-1.8835953124790645,1.4296498370854618,0.6272187065212331#212.25412084806635
270#-0.24448457187453143,0.6163985737185954,0.4179622292447135,-0.6336389163212534,0.3216407267040846,-1.9188604706717278,1.3005273885935,0.6620583011508331#212.4027172864093
271#-0.3336118811034582,0.7611294714317284,0.30235666344233497,-0.6376594923220491,0.3054563858258041,-1.9206423065837934,1.6256268204710977,0.37474208436595163#215.6781567849122
272#-0.2684254319418889,0.5366757792902691,0.4249360909326038,-0.5250365061474238,0.2643685650683697,-2.148651578981652,1.5821536960017462,0.5093129566670811#234.726897274175
273#-0.3734940000695721,0.7699889506033637,0.31253451613353656,-0.541457448312183,0.2224985513679233,-1.9394224177657613,1.628725831763243,0.34974261754741365#233.17738831015595
274#-0.1687248950098039,0.4467169541052865,0.44827165107513134,-0.5734607590888028,0.2780786965735349,-2.1613587461225094,1.617550910441062,0.5862468380841466#209.59716520892613
275#-0.1398110193709798,0.4233533146140182,0.4248258605280708,-0.5594030643629597,0.14731554845121367,-2.1856623711905123,1.6084690530059433,0.6199797958375093#233.92754869180627
276#-0.3292273550839642,0.7588890864723661,0.2678943493808127,-0.28201642961182116,0.07439200643122207,-1.9257092920202363,1.6192463897111748,0.21005963054804422#77.6995150987633
277#-0.11321678753523806,0.4599758582213265,0.13114967145743,-0.3317195484611297,0.19556079713752444,-2.404831915039488,1.800657490958496,0.48422406704251847#236.62173690944775
278#-0.06122705042637436,0.3951945142533638,0.3921215061200146,-0.5788972420187407,0.11116144537084373,-2.2010855354902934,1.7617457475122107,0.5683389241599759#237.32829150111934
279#-0.06443257228429564,0.5146349352886189,0.15647960863657703,-0.4510529269647545,0.29570231837905187,-2.4431654960615417,1.8126659504571412,0.49367435490083655#230.33308537520452
280#0.03399533473824466,0.36610574342894014,0.1632991380018879,-0.4288887454273314,0.3625216203396394,-2.413916782155561,1.8236215857209812,0.46535386246720617#235.25732514651577
281#0.0054363023143572525,0.39054795858177055,0.4044127711311903,-0.6406326183991164,0.2084363404653975,-2.1530862007259857,1.7966245331994823,0.4419641159102647#271.599343114887
282#-0.2704861588605636,0.4174649770963717,0.34218611689424666,-0.41149688009677804,0.14691476118622687,-2.1902655690781456,1.84622378042375,0.6851268704721977#164.6199083559733
283#0.024688143804916865,0.37556105756008945,0.03461335662295436,-0.3186819345606661,0.26830656016932886,-2.3730068050759803,1.846251801806525,0.3671490060296283#213.43297616337955
284#0.1361020940546353,0.29725457755223905,0.04595072575873331,-0.3548918016451985,0.1572912646299862,-2.3199859227497153,1.7519796986601706,0.5206723002156144#242.90628148599654
285#0.11289715848564003,0.315153125085401,-0.07107636291954465,-0.20282203564190615,0.2205445556379488,-2.372117601028501,1.6114783504298513,0.44689446169091174#240.31542429721716
286#0.13627134626344875,0.2617448451801251,0.14576490908786965,-0.4172705241206845,0.2657624793113769,-2.2721915411694993,1.6072816680239632,0.549120819509499#233.7270720683452
287#-0.0069081757060618365,0.3070015822888536,0.15809097741820138,-0.3588114808791636,0.2052018513147445,-2.274802642065406,1.6123820755200093,0.6256302584639093#220.87016483990064
288#0.09356702331572019,0.39580284140014216,-0.0947905247102826,-0.28217654593055014,0.19869273370179813,-2.339419091812583,1.8358350124107947,0.5903075009218772#209.40434124765216
289#-0.018259032758618655,0.3131592998461147,0.2400667202084171,-0.3997626922303829,0.15977643657527757,-2.2587644309860884,1.6179360766568138,0.5850598897076458#245.8106251601525
290#0.01637005706067017,0.3009798060816592,-0.044599264079228276,-0.13326300193877308,0.34312921989614165,-2.28024273262782,1.8130539994544597,0.3426729777064059#267.52763097565486
291#-0.007920552591693414,0.3587375956837869,-0.07779250702908219,-0.12869846713975694,0.34621474509394723,-2.3391101817962006,1.8753166602463411,0.3451356453896154#251.30698836466215
292#-0.05252085603106503,0.3702922705753977,-0.04237663264841246,-0.13985114183688327,0.4065157349729011,-2.445219193041062,1.8364901990837794,0.2996457166870876#242.24224414938487
293#0.004017736026390627,0.2637095857275975,-0.03556020707570218,-0.11332061590012026,0.4066320258977629,-2.5088117732303505,1.790310481385589,0.35054985572013414#231.6084055472355
294#-0.04255953720432351,0.4199928852390519,-0.19576228743822482,-0.1583330465967672,0.5625604206758961,-2.1957713096163722,1.8532845212914244,0.3360227044959834#168.2052516613617
295#-0.15086154706424296,0.5454304901335395,-0.16399077685231134,-0.08508162676784536,0.3072816103725958,-2.3492081437293364,1.6039028928302457,0.4871134557447893#195.5631825866814
296#-0.2345362494164285,0.40431826288688233,-0.035477579739985526,0.003920220848141125,0.23896955913264378,-2.361840046106443,1.7623915461068647,0.1835847166984851#164.10617199605127
297#-0.2542816527217842,0.40791769219346263,-0.04600193466828953,0.04625404960746374,0.1866870973448898,-2.4138009082813885,1.79827294866076,0.2581553691110911#213.1156594466408
298#-0.1407335998218789,0.6951985177285535,-0.2173341717931544,-0.15349832663285015,0.40080173681883347,-2.362142246762556,1.8167692098089578,0.3962056335214953#241.49172583163724
299#-0.2543686340320492,0.6687463721681892,-0.29180174548036675,0.05385581467178484,0.4819199419759152,-2.4727852942384057,1.6922568119707886,0.5647488915190771#235.6807252030183
300#-0.2440077927452105,0.744282130914777,-0.11252073547511625,-0.20437470117307666,0.5213418766521172,-2.465191653561573,1.7073603258272279,0.47354069709980534#1.4380589556832306
301#-0.2624580780285256,0.7732044582215719,-0.10012122172305453,-0.25284555204730325,0.5515125892408856,-2.5137721540879285,1.7429775905648868,0.46481151314236613#229.66027746096384
302#-0.3012084088331058,0.7756261416339401,-0.13315278197552405,-0.1628770980519659,0.5452475942097271,-2.5695050390783916,1.6568309437013382,0.5268787278614693#218.47975020677706
303#-0.1823042533692517,0.7859913533587908,-0.06905882387947715,-0.36406114123436367,0.48615876285479737,-2.5869091567361076,1.7822991982883605,0.5423077522175838#230.5078313030022
304#-0.2491882166214034,0.7128762374036502,0.04249255989985529,-0.35034431491509654,0.5170063648351132,-2.5483996679899064,1.7565234529633198,0.5117442435613946#231.8110537873715
305#-0.35551449028222404,0.8283692160292597,-0.1619513888388674,-0.10883076054880268,0.6428993057032639,-2.444368973575324,1.64056256741988,0.44451476521883787#255.87864841317827
306#-0.3367933908556009,0.7497130772476899,0.03202844756274862,-0.2594905023977494,0.3237058349609581,-2.282883278406419,1.8268068097362813,0.39135232500267664#240.1594692281686
307#-0.3343815695945724,0.8290627113329779,-0.0324610151710731,-0.26896499108305805,0.22493322747147387,-2.2867746628057786,1.8820448427362377,0.4199398017851065#232.66109651113044
308#-0.428342896560742,0.9672472967784358,-0.17276195789775217,-0.16128414622158144,0.4997510341242771,-2.6159377033214954,1.9021577589403242,0.36548891188110133#216.65822869985598
309#-0.27309004675006177,0.7441662436471366,-0.04855421484795451,-0.2170280312148078,0.054755978535822813,-2.180316542093275,1.7770655078954691,0.4997453026993906#235.93614216382235
310#-0.45647650629804354,0.9208574152964979,-0.05546347863142752,-0.22068201368189833,0.07961060012509855,-2.2822898028940437,1.9832328382751758,0.3472450928839413#195.8359141465663
311#-0.38376020553669915,0.9787546912539644,-0.14524743790468903,-0.21821609201648684,0.729057775330145,-2.738542148648074,1.7796031747465872,0.2833103632724827#228.5691427858139
312#-0.45735997600259937,0.811748201922162,-0.01348683167183045,-0.18094637866205188,0.10403382058021655,-2.263176730066141,1.9399898132637665,0.3389334599555675#205.7091482890439
313#-0.5527201029406537,0.7701330062940043,0.053484341948351104,-0.10991076303654654,0.1701141587081076,-2.3034975941453997,1.9428244605620077,0.47560834030673427#227.14571018758727
314#-0.5736587839918234,0.8598146575777036,0.01929105783288127,-0.1081008689234092,0.10703183775890296,-2.2305263942013713,1.8917140439375395,0.42975405314381376#236.64930550115676
315#-0.5342514042175301,0.8365670378495687,0.009048494140450575,-0.13110024474271584,0.12598864798965015,-2.1462692560636536,1.8872831764710043,0.3984140489268633#233.65998099552175
316#-0.6312118808766322,0.7255557986707885,-0.10611292352346502,0.10375312044338866,0.2943393099991415,-2.3988676366602553,1.9856817350778677,0.7018363721223618#211.37238000402837
317#-0.5703663522705221,0.8399767864471926,0.09658952365366708,-0.17907626525928608,0.23589624153474853,-2.1954941742097107,1.706736736725993,0.4227592499772615#231.79589891027425
318#-0.6451902677557032,0.8773122332808558,0.1758923185776604,-0.21246823099054823,0.3440819368905901,-2.21604777089023,1.7291758790193583,0.3895081874113112#234.25531687818295
319#-0.5866245628564064,0.9988768193403945,-0.14761482836356604,-0.20246176658879292,0.22236191858325527,-1.9268542716402035,1.9496037806854185,0.0665952818791368#206.99945399793125
320#-0.44947387140487516,0.9928138641211365,-0.1391154521582126,-0.30823791662729705,0.23935707515412344,-1.8208037316273036,1.9434714675237637,0.1283217447634875#209.02716535739006
321#-0.39598430779146787,0.9498422776671727,-0.16014261981723749,-0.2991438428523846,0.3185828835944452,-1.817930063909428,1.9379744954638807,0.14946980392059897#215.25593661385588
322#-0.5413872638888899,1.0283562341302783,-0.22861871429400007,-0.17636364307804367,0.32778715902029126,-1.9722807412682049,2.035280762069731,0.08357397436022634#208.70964455855082
323#-0.5714761239440843,1.0635837951488245,-0.25573836273578965,-0.1619537181102637,0.369402553860179,-2.0487936884542557,2.0297950371044005,0.09338977881128924#214.55750765292726
324#-0.5516044074421522,1.0487847711794989,-0.21876768731587648,-0.16187545812929433,0.4038051992777333,-2.0188275422251225,1.964039878479813,-0.006140673381167458#229.71080075418126
325#-0.552032718364271,1.0535154398478062,-0.22579833587266257,-0.18776253674628696,0.4467332728624466,-1.9700090026782107,1.8586394060354103,0.10337820130037761#209.35312257012902
326#-0.379486975547286,1.0475244697996797,-0.1282800615590465,-0.4398929227447697,0.3011309800742067,-1.9795574196383758,1.8862735485465372,0.34756203116795326#228.1573143023023
327#-0.35395509600942854,1.115546879603139,-0.21825758923162528,-0.45749041136145807,0.29802716558691583,-1.877113150812358,1.8472161931767612,0.24181028307959682#215.57157732939694
328#-0.3105976243916019,1.0919808768464403,-0.290314788013903,-0.44145642471941016,0.2786577805045252,-1.8316855432879022,1.7889185424018665,0.33454424498721597#205.32330971162253
329#-0.34244692498332324,1.0775018255367268,-0.14625605659212626,-0.49156086475053656,0.35788550234129984,-1.9392082143859894,1.8577797576257733,0.46376593158364976#226.46277949057784
330#-0.32113980513779855,1.064080316264944,-0.15679390111215094,-0.5024663509178366,0.345957264176468,-1.946947951385594,1.7595207909177262,0.48977484840418917#209.02750926342753
331#-0.345656287324622,1.096210943106435,-0.13719714214216494,-0.5157355832633949,0.3462037410117011,-1.9402998184722255,1.7364356407552146,0.3675785315757135#209.20841511791147
332#-0.2808985085095601,1.2321767962556205,-0.2635337768587796,-0.5960618975659915,0.14764041036471298,-1.7130867184367464,1.7575213272299033,0.3131784542882075#218.25247171664847
333#-0.2539750319220941,1.071295199522582,-0.23302866606167766,-0.5233690421595482,0.42677892336279494,-1.8911005982646283,1.7367745386605373,0.4289279893115679#215.3233372242509
334#-0.4099205691876754,1.2373953808149496,-0.03824874845473647,-0.6730542044752218,0.32319302643443026,-1.893122540271398,1.7859526044963396,0.4163403331870104#225.4263381518213
335#-0.4465695644810529,1.181493949818,-0.04408181532535812,-0.5801248349139966,0.39751756465523735,-1.6928742671716435,1.7363305308996726,0.15521756951537494#218.21596308331098
336#-0.4676949255965488,1.2055322141408686,0.015379775476965701,-0.6226874453836798,0.43823175957056976,-1.719064689913343,1.7862068755582838,0.17959275714552475#217.46893924634824
337#-0.45245385022417245,1.2429125687400397,0.03917360593246762,-0.7109267795942307,0.4985039542392625,-1.7681987469076248,1.8092475887271044,0.2334628807497009#217.64668341886414
338#-0.41044387714459274,1.2229357860312684,0.054783800569539826,-0.740104522339186,0.4136739018483572,-1.7744851013744878,1.7100670676797485,0.22765791465873786#228.78193687893915
339#-0.5462192132819766,1.2913737743956633,0.07112705732509708,-0.5705734224004126,0.21659523529748703,-2.0215618138812097,1.6072349404372208,0.4127687083221127#232.10795970667982
340#-0.48668763868101006,1.0899047617618687,0.1961389124088911,-0.6448177634089884,0.5663004033788477,-1.7855951916088293,1.693568189463307,0.2101754318290954#213.8353066641908
341#-0.47250025395098905,1.4004176270699544,0.1418630034064702,-0.9248333917623096,0.296490971805905,-1.8310738188479396,1.692588340940256,0.31178648062542225#216.0200500839258
342#-0.5808802930688405,1.3455472382450258,0.00435207750476603,-0.6555737427116479,0.257530860459741,-1.6681419047131638,1.76464553766453,0.2909397247662211#219.9008845257377
343#-0.628796126653653,1.5617857900072152,0.2321958307390363,-1.0051993007388011,0.3234966129093331,-1.9005320499746625,1.6640530182929143,0.37784385986817476#218.8375657489864
344#-0.5393459849679454,1.5417646917626848,0.2365825508168018,-1.0678990894912832,0.37253299779291443,-1.8685499230653237,1.8017133484600998,0.3218027914550869#222.25752397957302
345#-0.4520041565775039,1.4938460542963032,0.2380483568007048,-1.1112086651813153,0.2256811707785779,-1.7859505610151676,1.7383750132227214,0.46256931450433214#222.48376406728133
346#-0.49641818940772275,1.551111305974331,0.2634573768040656,-1.1337700441851224,0.19347404451598957,-1.8337886519189424,1.720976741499558,0.5413321842827805#236.61663420265722
347#-0.4404112513923368,1.590476014833062,0.2108066517234074,-1.1834031763216428,0.22494054953916698,-1.7498476464803074,1.8013848360233298,0.5196156783798693#216.4726135950998
348#-0.37549540401279924,1.3679465039391867,0.28570470084115035,-1.0367086154878544,0.4228831331340709,-2.065725932007698,1.6310808160806023,0.6941894802464147#216.7187670962244
349#-0.5076280790241823,1.4249281108530076,0.3674207577109181,-1.0856844205135008,0.33291605801093377,-2.0291418222853066,1.6071997976107562,0.7024357617560599#218.17651019192752
350#-0.38929158066422304,1.4284049383221604,0.184682803795,-0.9535638478459662,0.04903739208065101,-1.840593604981691,1.7235218726704922,0.3387308383048681#255.54612881024445
351#-0.31340089243971747,1.3267994958578027,0.3917355717225075,-1.201794586792759,0.16816340408377461,-1.8115223791274178,1.7420162293948247,0.352390604757626#213.69798685253036
352#-0.3301753153135842,1.3135911789856538,0.3595344325373723,-1.103264399383097,0.18912065583677892,-1.9315791607450636,1.6485518022963765,0.32103542082984327#230.04994735973278
353#-0.3847855911743853,1.3134943960496335,0.36495967990340517,-1.1400732949038996,0.2892861375657169,-1.9070969055227531,1.6001680154083127,0.3481924709843582#1.7054354589121927
354#-0.4127814730050394,1.3430393402516716,0.43248467284503217,-1.1853919305063778,0.3122516758826934,-1.925248187032105,1.5949662337234731,0.35274168856099225#455.1633343852364
355#-0.33586566625845116,1.320460070246057,0.43266839166647153,-1.1569201958630055,0.2553279924757643,-2.0145884352005496,1.6697640459881882,0.33998655809018885#512.8668899615659
356#-0.36119202746141904,1.3257114282297708,0.38207035838993963,-1.1535287506808174,0.25829692370451757,-2.006006818284008,1.6495994726651229,0.39329581396611224#420.9510833805875
357#-0.37012618034502587,1.2474834645371322,0.4010429462941721,-1.08363449626852,0.18430455228805856,-2.0070608587353727,1.6677031251664542,0.4441137337773312#422.2632520938887
358#-0.4099497445324464,1.29439694948072,0.37437079215900226,-1.0098728950173774,0.17102298731370572,-2.013842901092749,1.63935561499398,0.4836164118610176#503.3990309130419
359#-0.41134003146379045,1.3294748604348674,0.42017469203775837,-1.0757875349533137,0.054149709078597244,-1.909454640134785,1.6507208333248122,0.3672205119963002#449.1791657575332
360#-0.3998037476377179,1.3781288352086605,0.41586904418401627,-1.1394623991379456,0.018341426124693833,-1.8255288256691629,1.5881018980517818,0.42118892017977344#466.50318463951066
361#-0.4514241993553759,1.3655088899108456,0.4387839766902659,-1.1001614388109413,-0.03123812728696467,-1.7572238269507836,1.6053993469798455,0.38185813592583034#447.9788294438894
362#-0.6306571745125241,1.7151328778741475,0.3502489104630678,-1.2580415573674637,0.5053123476615861,-1.7549227052279286,1.3597562660899802,0.19044619433562293#490.6201625775955
363#-0.6234407819636637,1.7650398074188092,0.35554450576492885,-1.3184251962101896,0.587331084119698,-1.639655745646484,1.346155268965913,0.12320975801050978#469.25352390173924
364#-0.6438758629099515,1.7749443349932597,0.27416870890584905,-1.3046128224672762,0.5225996929290703,-1.634727809416374,1.3555434731380422,0.13662670027411564#475.8767356323
365#-0.6117106883495764,1.755941492415383,0.28861703636791775,-1.259722376670756,0.5271495192819702,-1.6650206945306052,1.4007742028657033,0.1341979781417521#481.99327814588565
366#-0.6538361599819517,1.7533123044616306,0.2884174330747486,-1.2475799577399922,0.4966601713038484,-1.6817723230536632,1.4319012141987835,0.07243285255879373#449.8131878108252
367#-0.5252124346427008,1.684668972115275,0.3399172874690677,-1.367772362461428,0.4663681483530027,-1.7126102961120284,1.447865164089994,0.1382846252402792#439.8950965159232
368#-0.797636703996041,1.7942672404685545,0.47450828017907776,-1.2541725901218153,0.38821442976527143,-1.8712387629624723,1.4315768853727155,0.5890736724398113#470.96503413599106
369#-0.9399158357743159,1.7883432098427192,0.5967417804366962,-1.247258478859265,0.3183759118424517,-1.9806146864468213,1.5751082590486951,0.5707353116371028#438.6620122316492
370#-0.699487157066793,1.6522943233690517,0.4866972295671954,-1.2427018081122816,0.33922622289974214,-2.0492499394879786,1.4243274267178496,0.7874125142564066#442.6195886822765
371#-0.6817116054066953,1.7938466861545421,0.4997798362981859,-1.3952748371580248,0.46249501958237405,-2.1931406000372253,1.4663421579416882,0.8132129957332442#460.9311405272255
372#-0.5518038786764177,1.5523866815619631,0.37167503231766774,-1.136974024166429,0.438831894089605,-2.1519046961785193,1.3337804301101144,0.6437250653276401#454.4304308626413
373#-0.6070947605652119,1.7725307692597474,0.5373375107439033,-1.5319699257379835,0.48648826861794287,-2.351605212056189,1.532773012881641,0.6485340859837834#465.953342401902
374#-0.625627672628956,1.8138676968236085,0.44271924044500477,-1.3350794027513289,0.3017991676419379,-2.1073597018477925,1.5174917422605778,0.5866167683389483#492.4595464968797
375#-0.7238790832236981,1.7122864846937282,0.5132250853396825,-1.2522473811680963,0.2893359034250133,-2.118937064219436,1.5639051050223804,0.5236481430639237#448.7422740738163
376#-0.7294373187374779,1.6573020325805372,0.5256132884768626,-1.2083485775583673,0.3222894288713618,-2.1594254686842382,1.5951009439184893,0.5238131475331573#459.8958813547601
377#-0.5917132398863826,1.7897416112934843,0.39699617885245886,-1.4132689300095138,0.35321023637204074,-2.3766459012551855,1.7184216727912784,0.8101314832520696#453.4103805692245
378#-0.6210187786188637,1.7046182093818945,0.613012959197423,-1.4956410125620476,0.36366673124056864,-2.0769780819901826,1.4036590813351841,0.7304727636981312#457.4633473002175
379#-0.6202701115424848,1.7575731137696828,0.6701903935880964,-1.5262846767445506,0.36089014444919626,-2.1651809444239967,1.3766027419840265,0.7063356198877627#477.4984464792246
380#-0.6430418014202083,1.7568988227916906,0.696503771047987,-1.5137144868820949,0.22779133685007985,-2.19943313532312,1.4114255915150606,0.7285820444947395#465.0462743549186
381#-0.45596157129714754,1.7813018230697244,0.406735530195763,-1.5331412245580738,0.37518300478799926,-2.251685222148634,1.7914209095794802,0.7443019756160486#439.0389707122348
382#-0.6429888187087093,1.877437593768283,0.4263343098827369,-1.5105462306496884,0.23097218182561535,-2.3139098154009035,1.7695908653345234,0.6311834652795681#478.45188278033487
383#-0.7445517046010219,1.875479090429188,0.8540623547709556,-1.733642092474601,0.2895115886563767,-2.289435634017876,1.5152947657519433,0.7571970705859318#455.6249960416914
384#-0.6276026461486752,1.8500743733685108,0.915048174687168,-1.862275022715353,0.3987972748821215,-2.376932817135887,1.4917434863193106,0.7302908219391957#460.79332550397237
385#-0.593640636955471,1.812430630903137,0.9054832462979945,-1.96802662116592,0.4110263533199964,-2.297921360117818,1.5479288834329612,0.7458169420862971#472.7824242011399
386#-0.5789227812804372,1.8617430622234927,0.9317313884850414,-1.922146512599154,0.4355530202784045,-2.3413678392812938,1.4892119691389725,0.669995552988433#470.31060846541925
387#-0.6054006517662589,1.8094330054097194,0.8827974745638882,-1.8076744345636233,0.4700523892541734,-2.2666383105405234,1.3098663068680745,0.7502288178645414#466.12244548275817
388#-0.6253373464977456,1.8629955545380992,0.7853446071869293,-1.77332759081727,0.5133566872256592,-2.312929114148349,1.3148222396387022,0.7236479912703341#433.394946607315
389#-0.5349404576655691,1.8804089947573117,0.7066270723766682,-1.7485642243359079,0.5878705735824277,-2.2167641419256543,1.2116464617530887,0.641617420610498#465.04068719404364
390#-0.504115503976601,1.9003710287814868,0.6559276162519071,-1.7650093269263987,0.5258273316619675,-2.2691864902756604,1.2011790878070592,0.7817139879929582#440.2292538419922
391#-0.33079236145114627,1.6446077829892496,0.4714641278602471,-1.6667121408575356,-0.02088589605985118,-2.112672295713939,1.9902250236379764,0.698544543476298#436.1815234530708
392#-0.3390048409808498,1.6567136287174202,0.576402250282913,-1.6950211410872855,0.03324033559686658,-2.2055327289871296,1.9633481886599942,0.6580132790727897#464.9112302154542
393#-0.4628356069441553,1.7399672786128766,0.5381103259489366,-1.7008754871032097,-0.2381621196844615,-2.2948528769268663,2.1225687695900173,0.7831681901831267#462.2683736393992
394#-0.45630413578700035,1.8197215351788725,0.47703343738545695,-1.7226046559818708,-0.2241115875316292,-2.2754405925701997,2.0779971353065854,0.7899772382375678#449.3497432613861
395#-0.3775391887159781,1.7743458508380974,0.43672518663568444,-1.6468516492679768,-0.30535875602388085,-2.235176501386739,2.0915197359135003,0.826852208603931#500.76175763589873
396#-0.693727695935038,1.80389477431137,0.5985995658082185,-1.5304061461260225,-0.18963336983758122,-2.3564631891576484,2.246631163854986,0.7496597856459473#439.1844210050458
397#-0.6518768114199948,1.6620199390921315,0.5448664180812188,-1.3680001731372018,-0.2725249816188661,-2.336465433817867,2.3643154820996157,0.8545742229677653#435.98585443358115
398#-0.574277723157895,1.789696389193072,0.4829446188637922,-1.4905817840489117,-0.41340847045893386,-2.3066286255310806,2.235395811806431,1.038931422447286#474.39955340433426
399#-0.6758656215491079,1.6736266769948562,0.433000152954073,-1.3035783090279194,-0.37680011621254805,-2.415554565092177,2.22399250587739,0.8723435656763857#454.1530329569591
400#-0.5458911509403277,1.6221523087054137,0.39479202626447074,-1.303729173037996,-0.4012958979291682,-2.5210395805390533,2.30871496786669,0.9578854662226507#505.1878798213918
401#-0.5911530310489784,1.9362746089028011,0.47366593744217256,-1.6099313674248192,-0.3469842053342431,-2.416613569921283,2.3023430946606434,1.1643812431664369#447.8420674168144
402#-0.7531915005619407,1.9830217095126133,0.4303535669232355,-1.4933297604188933,-0.537897941612102,-2.3515246348468444,2.352394612279878,0.8592255705848687#480.8269964175746
403#-0.8700979017990643,1.9881640804141314,0.39052125798441867,-1.4167642802685787,-0.561819247249955,-2.3518028583257817,2.3960724575998698,0.8505922859474511#458.0887581914837
404#-0.6689779929614634,2.092020438467738,0.21216088960194965,-1.5139133926151391,-0.4976134215740717,-2.456756025124381,2.4423239881945005,0.9393037159257858#449.152475766033
405#-0.6772361214706325,2.144021004268643,0.18102935560792024,-1.5613843675381087,-0.5335283278995733,-2.3917205044211913,2.476919383182909,0.8255644582787774#454.11610326192584
406#-0.7622685726103557,2.0689747794132964,0.24846256427850433,-1.4050541044502387,-0.353777067714963,-2.489107078596019,2.1803051420904622,0.9752854062862929#468.4058419268525
407#-0.7051886845823727,1.9029528338362252,0.33284128952802805,-1.3871793941389707,-0.2786746692072706,-2.423415218644172,2.290447840783857,0.9914253340194749#430.9792633204688
408#-0.67886063867275,1.883935726243445,0.4227586076620898,-1.5178114127162847,-0.318056588660671,-2.5253536142080337,2.099560046068967,1.1104152164467485#470.6079888698819
409#-0.7236157817012567,1.9378618632387243,0.3602669357513619,-1.4649596571990182,-0.22467071273234737,-2.407073841057376,2.0437041589775395,0.9866835596270777#452.31867063328605
410#-0.63857507369395,2.0730041548952363,0.2692565503484845,-1.5294960609597665,-0.1318018134580045,-2.4271339467554487,2.0144302294456855,0.8550813479006937#495.10279633581484
411#-0.6820245353187575,1.9006754878376348,0.4611418742389082,-1.5168111218892304,-0.14177867664532873,-2.446236187851837,1.9448543300003054,0.9650662100933576#469.7383861308437
412#-0.5868914801047034,2.0897889354888415,0.30762774105876406,-1.6717992009562312,-0.1392279015232566,-2.4617032527695972,2.0879753338581506,0.9164199400638989#464.2359351592698
413#-0.7454992917297458,1.9640255320654796,0.5299630184056678,-1.5487711916247808,-0.24457901505955065,-2.434281514619378,2.073101917185147,1.0365822249069832#474.45459706145743
414#-0.646484457178799,2.21882831455415,0.3247894801567258,-1.7553130196813376,-0.27411909907439785,-2.47299543134163,2.2532132471134316,1.0146561980182203#449.15924281201654
415#-0.6281958412395027,2.1527257690011696,0.23571089652187943,-1.6716384762188876,-0.1825562973916494,-2.615531572323646,2.221842267918952,0.9395151237016917#453.38058675963316
416#-0.6461793109801931,2.154302985650901,0.1772555927511103,-1.597883194660062,-0.18568565958862407,-2.3318883275152174,2.0844806807524465,0.8452365192944189#443.46613843788873
417#-0.6671213543349375,2.408156765854805,0.1993599478803013,-1.784374072934845,-0.07949323801768556,-2.4350341984425574,2.383492165032386,0.9431320125362838#454.36704033307046
418#-0.6872112208427413,2.211352937377202,0.3312863210176188,-1.7320129773951471,-0.32616989940010904,-2.3574985122744296,2.223651559604716,0.8023197453519391#438.91842260808767
419#-0.6981494865264118,2.42230807262433,0.33473988570798463,-1.8827043796067053,-0.14670773764743428,-2.3184121545968788,2.396533144912906,0.8964139394690407#427.1751932944945
420#-0.6247376934343942,2.3792611744065764,0.328264123858077,-1.9025417253061796,-0.1215571095135097,-2.3423334698875933,2.2782115423689833,0.7994583970974346#451.42965955742727
421#-0.6790730049921307,2.3673473373917306,0.29519058680453025,-1.78698696581569,-0.17832543405684473,-2.3135666582897065,2.35130325100057,1.0773522340695807#485.5654796015458
422#-0.6231022950382472,2.4083287349307843,0.3412120981134596,-1.9466701774239759,-0.11641862341564942,-2.183006502823729,2.1175406546263154,0.7731548304680628#484.754451262402
423#-0.5803675231414409,2.3696787950687965,0.2991060228285673,-1.9088160390260764,-0.11152125074083995,-2.215929267820424,2.1731163777871183,0.754791436268019#488.35860931615724
424#-0.7736146447228233,2.4449346606894453,0.30252695966001963,-1.7870511834319054,-0.03263714473043898,-2.098001313318568,2.236986941933942,0.8436184344863453#434.27394908926817
425#-0.567167428198662,2.5756958705294752,0.23789345241291368,-2.1024983398648702,-0.1361971628253897,-2.321217653910384,2.1114713062643977,0.6988066890165056#478.1919262314426