1,1,1,1
1,1,0.6888888888888889,1
1,1,0.6818181818181821,1
1,1,0.6666666666666667,1
1,1,0.6590909090909096,1
1,1,0.644444444444444,1
1,1,0.636363636363637,1
1,1,0.622222222222222,1
1,1,0.6,1
1,1,0.5909090909090908,1
1,1,0.577777777777778,1
1,1,0.4897959183673469,1
1,1,0.4693877551020406,1
1,1,0.44897959183673436,1
1,1,0.428571428571428,1
1,1,0.40816326530612296,1
1,1,0.3877551020408167,1
1,1,0.36734693877551045,1
1,1,0.666666666666666,1
0.03636363636363635,1,0.1428571428571427,0
0.0,1,0.11904761904761889,0
1,1,0.07142857142857134,0
1,1,0.04761904761904769,0
1,1,0.023809523809523777,0
1,1,0.0,0
1,1,0.027027027027027053,0
1,1,0.18518518518518529,0
1,1,0.6603773584905663,1
1,1,0.7358490566037736,1
1,1,0.6923076923076925,1
1,1,0.6249999999999999,1
1,1,0.6428571428571428,1
1,1,0.7142857142857143,1
1,1,0.6785714285714284,1
1,1,0.6734693877551021,1
1,1,0.6607142857142854,1
1,1,0.6964285714285715,1
1,1,0.5535714285714284,1
1,1,0.6071428571428572,1
1,1,0.5932203389830506,1
1,1,0.6730769230769232,1
1,1,0.6792452830188681,1
1,1,0.7735849056603774,1
1,1,0.6779661016949153,1
1,1,0.7272727272727273,1
1,1,0.7115384615384613,1
1,1,0.5384615384615387,1
1,1,0.5849056603773587,1
1,1,0.6153846153846156,1
1,1,0.714285714285714,1
1,1,0.5510204081632655,1
1,1,0.6181818181818182,1
1,1,0.7291666666666664,1
1,1,0.6122448979591834,1
1,1,0.5714285714285713,1
1,1,0.6530612244897956,1
1,1,0.5769230769230768,1
1,1,0.7692307692307695,1
1,1,0.6037735849056605,1
1,1,0.6603773584905661,1
1,1,0.6538461538461537,1
1,1,0.6226415094339621,1
1,1,0.6122448979591841,1
1,1,0.6666666666666672,1
1,1,0.7000000000000003,1
1,1,0.5892857142857144,1
1,1,0.6326530612244895,1
1,1,0.6734693877551016,1
1,1,0.5714285714285718,1
1,1,0.6346153846153847,1
1,1,0.7547169811320754,1
1,1,0.7735849056603776,1
1,1,0.6730769230769234,1
1,1,0.48888888888888826,1
1,1,0.7272727272727277,1
1,1,0.591836734693877,1
1,1,0.5999999999999998,1
1,1,0.5250000000000002,1
1,1,0.6500000000000005,1
1,1,0.6250000000000001,1
1,1,0.5961538461538463,1
1,1,0.6136363636363632,1
1,1,0.666666666666667,1
1,1,0.75,1
1,1,0.6346153846153845,1
1,1,0.641509433962264,1
1,1,0.6285714285714284,1
1,1,0.5454545454545461,1
1,1,0.6938775510204078,1
1,1,0.6326530612244892,1
1,1,0.6938775510204084,1
1,1,0.5749999999999995,1
1,1,0.625,1
1,1,0.555555555555556,1
1,1,0.7045454545454547,1
1,1,0.5909090909090904,1
1,1,0.6999999999999994,1
1,1,0.6750000000000007,1
1,1,0.7307692307692306,1
1,1,0.5454545454545453,1
1,1,0.6571428571428579,1
1,1,0.7358490566037739,1
1,1,0.6981132075471699,1
1,1,0.6226415094339628,1
1,1,0.6981132075471695,1
1,1,0.7959183673469384,1
1,1,0.7755102040816328,1
1,1,0.6545454545454544,1
1,1,0.7346938775510203,1
1,1,0.777777777777778,1
1,1,0.576271186440678,1
1,1,0.5593220338983049,1
1,1,0.8,1
1,1,0.6037735849056601,1
1,1,0.7346938775510209,1
1,1,0.7142857142857146,1
1,1,0.642857142857143,1
1,1,0.5714285714285716,1
1,1,0.6393442622950821,1
1,1,0.6458333333333337,1
1,1,0.711111111111111,1
1,1,0.511111111111111,1
1,1,0.6226415094339623,1
1,1,0.6888888888888887,1
1,1,0.7750000000000002,1
1,1,0.5500000000000005,1
1,1,0.5833333333333336,1
1,1,0.576923076923077,1
1,1,0.5660377358490567,1
1,1,0.5576923076923076,1
1,1,0.6153846153846153,1
1,1,0.6444444444444444,1
1,1,0.6222222222222222,1
1,1,0.8000000000000007,1
1,1,0.7249999999999999,1
1,1,0.7249999999999994,1
1,1,0.6666666666666663,1
1,1,0.5849056603773584,1
1,1,0.5625,1
1,1,0.541666666666667,1
1,1,0.6500000000000006,1
1,1,0.6410256410256414,1
1,1,0.6875,1
1,1,0.7428571428571429,1
1,1,0.6857142857142857,1
1,1,0.5510204081632657,1
1,1,0.6136363636363631,1
1,1,0.6590909090909094,1
0.023809523809523756,1,0.037037037037036855,0
1,1,0.5416666666666663,1
1,1,0.5555555555555558,1
1,1,0.5227272727272727,1
1,1,0.5454545454545452,1
1,1,0.31250000000000006,1
1,1,0.5499999999999998,1
1,1,0.6388888888888884,1
1,1,0.033898305084745985,0
1,1,0.7142857142857137,1
1,1,0.5333333333333329,1
1,1,0.4749999999999998,1
1,1,0.5897435897435893,1
0.0657894736842101,1,0.19999999999999962,0
0.026315789473683734,1,0.1355932203389831,0
0.01315789473684264,1,0.1333333333333333,0
1,1,0.5999999999999994,1
0.08219178082191755,1,0.25,0
1,1,0.377777777777778,1
1,1,0.5250000000000005,1
1,1,0.4736842105263152,1
1,1,0.7,1
1,1,0.6315789473684209,1
1,1,0.615384615384616,1
1,1,0.5,1
1,1,0.38636363636363696,1
1,1,0.6285714285714292,1
1,1,0.5263157894736847,1
1,1,0.36363636363636354,1
1,1,0.3999999999999997,1
1,1,0.4545454545454543,1
1,1,0.5789473684210528,1
1,1,0.35555555555555607,1
1,1,0.3061224489795917,1
1,1,0.33333333333333387,1
1,1,0.738636363636363,1
1,1,0.6363636363636364,1
1,1,0.7282608695652173,1
1,1,0.7349397590361447,1
1,1,0.7594936708860758,1
1,1,0.7468354430379753,1
1,1,0.632183908045977,1
1,1,0.7972972972972979,1
1,1,0.7702702702702698,1
1,1,0.5952380952380946,1
1,1,0.8088235294117655,1
1,1,0.5750000000000007,1
1,1,0.5185185185185185,1
1,1,0.7162162162162169,1
1,1,0.5675675675675678,1
0.915492957746479,1,0.5957446808510638,1
1,1,0.7647058823529413,1
1,1,0.7101449275362315,1
1,1,0.5735294117647052,1
0.8939393939393936,1,0.5434782608695659,1
1,1,0.7619047619047618,1
1,1,0.5873015873015878,1
0.8833333333333333,1,0.4777777777777772,1
1,1,0.6956521739130429,1
1,1,0.6607142857142861,1
0.8909090909090915,1,0.4367816091954031,1
1,1,0.746031746031746,1
1,1,0.6825396825396817,1
0.9183673469387749,1,0.39759036144578297,1
1,1,0.7499999999999999,1
1,1,0.5822784810126583,1
0.9591836734693875,1,0.5789473684210528,1
0.9523809523809516,1,0.36249999999999927,1
1,1,0.7727272727272727,1
1,1,0.6351351351351358,1
1,1,0.6216216216216208,1
0.847826086956522,1,0.49230769230769217,1
1,1,0.333333333333334,1
1,1,0.6666666666666669,1
1,1,0.6811594202898545,1
0.6976744186046511,1,0.359375,1
1,1,0.32352941176470523,1
1,1,0.5901639344262293,1
1,1,0.6133333333333338,1
1,1,0.5599999999999998,1
0.5789473684210529,1,0.24193548387096794,1
1,1,0.7017543859649118,1
1,1,0.5084745762711864,1
1,1,0.6376811594202892,1
1,1,0.6571428571428575,1
1,1,0.6086956521739123,1
0.4571428571428568,1,0.12068965517241395,1
1,1,0.3684210526315796,1
1,1,0.7230769230769231,1
1,1,0.46428571428571436,1
0.3333333333333331,1,0.017857142857142787,1
0.2399999999999997,0.907692307692308,1,0
1,1,0.44000000000000034,1
1,1,0.634920634920635,1
1,1,0.44230769230769257,1
1,1,0.5507246376811586,1
1,1,0.5581395348837203,1
1,1,0.5645161290322581,1
1,1,0.4375,1
1,1,0.6031746031746034,1
1,1,0.6081081081081076,1
1,1,0.5254237288135593,1
1,1,0.45454545454545475,1
1,1,0.565217391304347,1
1,1,0.6521739130434777,1
1,1,0.48214285714285715,1
1,1,0.5128205128205127,1
1,1,0.6349206349206348,1
1,1,0.6190476190476191,1
1,1,0.5555555555555549,1
1,1,0.48214285714285693,1
1,1,0.48076923076923067,1
1,1,0.5999999999999999,1
1,1,0.7192982456140357,1
1,1,0.45283018867924535,1
0.9666666666666667,1,0.5333333333333333,1
1,1,0.6027397260273973,1
1,1,0.6935483870967737,1
0.9636363636363646,1,0.47727272727272685,1
1,1,0.6785714285714293,1
1,1,0.5789473684210524,1
0.9591836734693874,1,0.4216867469879518,1
1,1,0.5466666666666667,1
0.9423076923076924,1,0.6190476190476191,1
1,1,0.3797468354430379,1
1,1,0.602941176470588,1
0.8775510204081631,1,0.5606060606060606,1
1,1,0.6140350877192982,1
1,1,0.5357142857142861,1
1,1,0.5714285714285712,1
1,1,0.7111111111111116,1
1,1,0.35135135135135104,1
0.8260869565217388,1,0.47692307692307684,1
1,1,0.6470588235294124,1
1,1,0.6704545454545454,1
1,1,0.34782608695652234,1
1,1,0.5964912280701762,1
0.7619047619047621,1,0.390625,1
1,1,0.5714285714285707,1
1,1,0.6842105263157897,1
0.9538461538461537,1,0.5428571428571426,1
1,1,0.6385542168674696,1
1,1,0.3387096774193551,1
1,1,0.6769230769230771,1
0.7105263157894736,1,0.32258064516129026,1
0.9782608695652172,1,0.5909090909090909,1
0.9,1,0.48888888888888843,1
1,1,0.6202531645569619,1
1,1,0.3793103448275859,1
0.6764705882352939,1,0.2542372881355932,1
1,1,0.5263157894736836,1
0.9534883720930232,1,0.53125,1
1,1,0.6666666666666662,1
0.8363636363636355,1,0.4022988505747129,1
1,1,0.616438356164384,1
1,1,0.5714285714285721,1
1,1,0.5806451612903227,1
0.6999999999999997,1,0.2142857142857144,1
1,1,0.6326530612244893,1
0.9736842105263156,1,0.47540983606557374,1
0.795918367346939,1,0.3253012048192766,1
1,1,0.623188405797101,1
1,1,0.5813953488372083,1
0.7200000000000003,1,0.17307692307692313,1
1,1,0.6507936507936507,1
1,1,0.440677966101695,1
0.9795918367346936,1,0.625,1
0.7619047619047611,1,0.2531645569620258,1
1,1,0.6231884057971009,1
1,1,0.6507936507936505,1
1,1,0.8000000000000004,1
1,1,0.5396825396825391,1
0.8095238095238099,1,0.14583333333333315,1
1,1,0.622950819672131,1
1,1,0.5333333333333335,1
1,1,0.4285714285714283,1
0.9782608695652172,1,0.5846153846153848,1
0.7428571428571434,1,0.18666666666666662,1
1,1,0.7192982456140355,1
0.8108108108108111,1,0.1555555555555555,1
1,1,0.4230769230769232,1
0.9761904761904762,1,0.5312500000000001,1
0.7586206896551723,1,0.13043478260869587,1
1,1,0.6122448979591839,1
0.7285714285714283,1,0.17499999999999985,1
0.8636363636363629,1,0.07936507936508001,1
1,1,0.6491228070175441,1
1,1,0.5892857142857139,1
1,1,0.6666666666666664,1
0.6615384615384613,1,0.22222222222222254,1
1,1,0.47727272727272735,1
1,1,0.4915254237288134,1
1,1,0.5614035087719305,1
1,1,0.0535714285714294,1
1,1,0.7599999999999997,1
0.6,1,0.2888888888888884,1
1,1,0.6461538461538461,1
1,1,0.06122448979591846,1
1,1,0.630769230769231,1
1,1,0.5614035087719301,1
0.5454545454545459,1,0.21590909090909108,1
1,1,0.6388888888888891,1
1,1,0.609375,1
1,1,0.12195121951219413,1
1,1,0.7400000000000003,1
0.46938775510204084,1,0.13253012048192764,1
1,1,0.5833333333333335,1
0.903846153846154,1,0.5079365079365078,1
1,1,0.5306122448979594,1
1,1,0.2941176470588246,1
1,1,0.5245901639344261,1
1,1,0.5344827586206891,1
0.4186046511627917,1,0.06329113924050656,1
1,1,0.6363636363636362,1
0.8775510204081631,1,0.5606060606060607,1
1,1,0.590909090909091,1
1,1,0.6400000000000001,1
1,1,0.6749999999999998,1
0.34285714285714386,1,0.0,1
0.3,1,1,0
0.847826086956522,1,0.4923076923076923,1
0.813953488372093,1,0.4375,1
1,1,0.6274509803921564,1
1,1,0.65,1
0.7948717948717947,1,0.37704918032786877,1
1,1,0.5777777777777784,1
0.8235294117647062,1,0.3389830508474577,1
1,1,0.5402298850574708,1
1,1,0.6065573770491802,1
1,1,0.6333333333333333,1
0.8666666666666666,1,0.3214285714285716,1
1,1,0.5060240963855425,1
1,1,0.6101694915254237,1
1,1,0.6046511627906977,1
1,1,0.3018867924528303,1
1,1,0.4936708860759497,1
1,1,0.6818181818181814,1
1,1,0.5833333333333337,1
0.915492957746479,1,0.5750000000000002,1
1,1,0.4864864864864864,1
1,1,0.6000000000000001,1
1,1,0.5749999999999997,1
0.9076923076923076,1,0.5434782608695646,1
1,1,0.34090909090909105,1
1,1,0.49275362318840665,1
1,1,0.5866666666666659,1
1,1,0.40000000000000036,1
1,1,0.5750000000000002,1
0.9259259259259259,1,0.4482758620689652,1
1,1,0.4857142857142857,1
1,1,0.5964912280701751,1
0.9583333333333326,1,0.4096385542168674,1
1,1,0.644444444444445,1
1,1,0.3974358974358971,1
1,1,0.6321839080459773,1
1,1,0.6847826086956528,1
1,1,0.383561643835616,1
1,1,0.39130434782608764,1
1,1,0.6136363636363641,1
1,1,0.6374999999999997,1
1,1,0.6627906976744184,1
1,1,0.42857142857142777,1
1,1,0.6144578313253007,1
1,1,0.6122448979591846,1
1,1,0.6756756756756762,1
1,1,0.6315789473684202,1
1,1,0.4821428571428569,1
1,1,0.6125000000000004,1
1,1,0.6750000000000004,1
1,1,0.5714285714285708,1
1,1,0.6351351351351354,1
1,1,0.588235294117648,1
0.9710144927536228,1,0.5999999999999998,1
1,1,0.7066666666666671,1
1,1,0.5681818181818185,1
1,1,0.5892857142857136,1
0.984615384615385,1,0.5913978494623661,1
1,1,0.5510204081632661,1
1,1,0.5400000000000004,1
1,1,0.5666666666666667,1
1,1,0.648648648648649,1
1,1,0.594202898550724,1
1,1,0.5517241379310348,1
1,1,0.6800000000000007,1
1,1,0.5476190476190474,1
1,1,0.5362318840579703,1
1,1,0.5500000000000003,1
1,1,0.6376811594202894,1
1,1,0.58974358974359,1
1,1,0.5102040816326524,1
1,1,0.5753424657534238,1
1,1,0.698412698412699,1
1,1,0.6666666666666659,1
1,1,0.6964285714285705,1
1,1,0.6086956521739125,1
1,1,0.6304347826086956,1
1,1,0.7777777777777782,1
1,1,0.5930232558139532,1
1,1,0.5714285714285705,1
1,1,0.6071428571428569,1
1,1,0.6024096385542173,1
1,1,0.5438596491228068,1
1,1,0.5957446808510637,1
1,1,0.6551724137931031,1
1,1,0.7916666666666663,1
1,1,0.6351351351351349,1
1,1,0.5178571428571431,1
1,1,0.5999999999999993,1
1,1,0.6140350877192975,1
1,1,0.5810810810810806,1
1,1,0.673469387755103,1
1,1,0.7954545454545452,1
1,1,0.6599999999999988,1
1,1,0.7333333333333328,1
1,1,0.657142857142857,1
1,1,0.5652173913043472,1
1,1,0.5535714285714293,1
1,1,0.5800000000000007,1
1,1,0.6938775510204077,1
1,1,0.8000000000000002,1
1,1,0.5799999999999994,1
1,1,0.6530612244897962,1
1,1,0.7250000000000003,1
1,1,0.3968253968253965,1
1,1,0.7777777777777776,1
1,1,0.21739130434782644,1
1,1,0.5142857142857139,1
1,1,0.6078431372549021,1
1,1,0.4210526315789474,1
1,1,0.6779661016949154,1
1,1,0.6964285714285711,1
1,1,0.6538461538461534,1
1,1,0.5961538461538466,1
1,1,0.5428571428571426,1
1,1,0.6458333333333331,1
1,1,0.48571428571428604,1
1,1,0.5178571428571428,1
1,1,0.5094339622641512,1
1,1,0.7575757575757577,1
1,1,0.703125,1
1,1,0.6612903225806452,1
1,1,0.6271186440677963,1
1,1,0.5833333333333333,1
1,1,0.6571428571428569,1
1,1,0.7999999999999997,1
1,1,0.6111111111111108,1
1,1,0.5277777777777775,1
1,1,0.5833333333333331,1
1,1,0.8000000000000003,1
1,1,0.4576271186440677,1
1,1,0.7714285714285717,1
1,1,0.41509433962264125,1
1,1,0.4285714285714286,1
1,1,0.5555555555555557,1
1,1,0.5142857142857141,1
1,1,0.5750000000000003,1
1,1,0.5471698113207545,1
1,1,0.5102040816326531,1
1,1,0.4210526315789471,1
1,1,0.4736842105263151,1
1,1,0.5428571428571429,1
1,1,0.7288135593220341,1
1,1,0.7169811320754714,1
1,1,0.5277777777777776,1
1,1,0.7272727272727271,1
1,1,0.7999999999999998,1
1,1,0.5555555555555555,1
1,1,0.5333333333333333,1
1,1,0.6458333333333335,1
1,1,0.7714285714285709,1
1,1,0.578125,1
1,1,0.7428571428571428,1
1,1,0.5454545454545456,1
1,1,0.47457627118644075,1
1,1,0.4888888888888891,1
1,1,0.5777777777777774,1
1,1,0.522727272727273,1
1,1,0.4857142857142856,1
1,1,0.6041666666666669,1
1,1,0.6136363636363636,1
1,1,0.5423728813559323,1
1,1,0.5192307692307694,1
1,1,0.555555555555555,1
1,1,0.5416666666666665,1
1,1,0.5428571428571433,1
1,1,0.6000000000000005,1
1,1,0.7333333333333333,1
1,1,0.7209302325581389,1
1,1,0.7215189873417722,1
1,1,0.7432432432432432,1
1,1,0.7765957446808518,1
1,1,0.7826086956521735,1
1,1,0.7282608695652171,1
1,1,0.6888888888888896,1
1,1,0.7580645161290319,1
1,1,0.6385542168674707,1
1,1,0.6329113924050624,1
1,1,0.767857142857143,1
1,1,0.789473684210527,1
1,1,0.732142857142857,1
1,1,0.6290322580645161,1
1,1,0.5357142857142856,1
1,1,0.6718750000000001,1
1,1,0.5737704918032785,1
1,1,0.4464285714285717,1
0.9857142857142855,1,0.6489361702127657,1
0.984615384615385,1,0.5913978494623648,1
1,1,0.39583333333333315,1
0.9833333333333333,1,0.544444444444444,1
1,1,0.6551724137931036,1
1,1,0.4090909090909093,1
1,1,0.4500000000000001,1
1,1,0.4698795180722897,1
1,1,0.6000000000000003,1
1,1,0.44303797468354456,1
1,1,0.4400000000000003,1
0.9454545454545459,1,0.46590909090909105,1
1,1,0.4411764705882345,1
0.938775510204082,1,0.4096385542168674,1
1,1,0.46031746031746074,1
0.9761904761904758,1,0.3670886075949362,1
1,1,0.508771929824561,1
1,1,0.7551020408163263,1
1,1,0.3378378378378378,1
1,1,0.6595744680851071,1
1,1,0.6122448979591844,1
1,1,0.697674418604652,1
1,1,0.6344086021505368,1
1,1,0.7199999999999992,1
1,1,0.3333333333333339,1
1,1,0.7023809523809526,1
1,1,0.6222222222222229,1
1,1,0.5882352941176477,1
1,1,0.37499999999999994,1
1,1,0.6206896551724138,1
1,1,0.7000000000000007,1
1,1,0.42857142857142916,1
1,1,0.6309523809523817,1
1,1,0.5600000000000004,1
1,1,0.6666666666666673,1
1,1,0.5581395348837199,1
1,1,0.6582278481012657,1
1,1,0.6499999999999999,1
1,1,0.7000000000000008,1
1,1,0.7941176470588246,1
1,1,0.6891891891891884,1
1,1,0.6891891891891886,1
0.8717948717948717,1,0.4262295081967214,1
1,1,0.597701149425288,1
1,1,0.6708860759493662,1
1,1,0.6216216216216217,1
1,1,0.64,1
0.8000000000000004,1,0.2678571428571428,1
1,1,0.6124999999999994,1
1,1,0.6911764705882345,1
0.7999999999999998,1,0.2075471698113209,1
0.8571428571428571,1,0.16666666666666685,1
1,1,0.6756756756756755,1
0.8767123287671228,1,0.13636363636363633,1
1,1,0.5733333333333328,1
0.7428571428571428,1,0.1500000000000003,1
0.9459459459459467,1,0.6631578947368421,1
0.6307692307692312,1,0.19999999999999968,1
0.9710144927536228,1,0.6276595744680847,1
0.5,1,0.2222222222222217,1
1,1,0.6964285714285707,1
0.984615384615385,1,0.5978260869565217,1
0.36363636363636365,1,0.1022727272727269,1
0.20408163265306103,1,1,0
1,1,0.6617647058823534,1
1,1,0.5888888888888896,1
1,1,0.5813953488372092,1
1,1,0.5903614457831328,1
1,1,0.6025641025641019,1
1,1,0.6140350877192976,1
1,1,0.7199999999999994,1
1,1,0.6266666666666668,1
1,1,0.6764705882352949,1
1,1,0.6440677966101694,1
1,1,0.653846153846154,1
1,1,0.6349206349206349,1
1,1,0.7017543859649116,1
1,1,0.5901639344262297,1
1,1,0.5862068965517235,1
1,1,0.5483870967741936,1
1,1,0.632911392405063,1
1,1,0.5624999999999999,1
1,1,0.6136363636363638,1
1,1,0.5897435897435903,1
1,1,0.7666666666666667,1
1,1,0.6301369863013693,1
1,1,0.5890410958904105,1
1,1,0.6521739130434783,1
0.9795918367346936,1,0.5263157894736846,1
0.9565217391304346,1,0.5846153846153848,1
1,1,0.547945205479452,1
1,1,0.563218390804598,1
0.9523809523809524,1,0.515625,1
1,1,0.5882352941176465,1
1,1,0.5411764705882356,1
0.9487179487179486,1,0.46774193548387094,1
0.9000000000000005,1,0.5250000000000002,1
1,1,0.6461538461538463,1
1,1,0.5316455696202533,1
0.8636363636363634,1,0.5108695652173918,1
1,1,0.65625,1
1,1,0.5270270270270265,1
0.8333333333333333,1,0.4444444444444449,1
0.9189189189189187,1,0.6421052631578951,1
1,1,0.4339622641509435,1
0.8333333333333326,1,0.3977272727272731,1
0.9285714285714293,1,0.6063829787234036,1
1,1,0.44897959183673486,1
0.8367346938775516,1,0.3493975903614455,1
0.9538461538461547,1,0.5652173913043486,1
0.8571428571428562,1,0.30379746835443044,1
0.9833333333333333,1,0.5444444444444438,1
0.9428571428571417,1,0.2799999999999999,1
1,1,0.7291666666666669,1
1,1,0.5340909090909088,1
1,1,0.26086956521739174,1
1,1,0.673913043478261,1
1,1,0.5301204819277103,1
1,1,0.2539682539682539,1
1,1,0.6555555555555551,1
1,1,0.5443037974683547,1
1,1,0.28070175438596434,1
1,1,0.6395348837209308,1
1,1,0.5675675675675668,1
1,1,0.34000000000000036,1
1,1,0.4523809523809524,1
1,1,0.6538461538461539,1
1,1,0.6799999999999993,1
1,1,0.4761904761904762,1
1,1,0.6818181818181818,1
1,1,0.6081081081081078,1
1,1,0.546511627906977,1
1,1,0.5438596491228078,1
1,1,0.5116279069767431,1
1,1,0.5238095238095236,1
1,1,0.5249999999999997,1
1,1,0.5263157894736846,1
1,1,0.5797101449275356,1
1,1,0.5238095238095234,1
1,1,0.6199999999999993,1
1,1,0.6265060240963851,1
1,1,0.6282051282051279,1
1,1,0.6575342465753427,1
1,1,0.6989247311827961,1
1,1,0.6229508196721312,1
1,1,0.6777777777777783,1
1,1,0.6271186440677967,1
1,1,0.5964912280701763,1
1,1,0.6176470588235293,1
1,1,0.6781609195402295,1
1,1,0.6904761904761908,1
1,1,0.7124999999999999,1
1,1,0.6891891891891885,1
1,1,0.5471698113207547,1
1,1,0.540983606557377,1
1,1,0.5918367346938777,1
1,1,0.5918367346938774,1
1,1,0.6216216216216209,1
1,1,0.49122807017543885,1
1,1,0.5660377358490564,1
1,1,0.6231884057971011,1
1,1,0.6428571428571432,1
1,1,0.6792452830188676,1
1,1,0.6326530612244898,1
1,1,0.659090909090909,1
1,1,0.734375,1
0.9374999999999999,1,0.5543478260869564,1
1,1,0.6935483870967742,1
0.9275362318840582,1,0.5250000000000002,1
0.9833333333333333,1,0.544444444444445,1
1,1,0.6799999999999998,1
0.938461538461539,1,0.5652173913043472,1
1,1,0.5402298850574713,1
1,1,0.5232558139534885,1
1,1,0.5569620253164554,1
1,1,0.5945945945945943,1
1,1,0.7555555555555559,1
1,1,0.5540540540540537,1
1,1,0.26470588235294135,1
1,1,0.5555555555555547,1
1,1,0.7714285714285712,1
1,1,0.6034482758620687,1
1,1,0.5806451612903222,1
1,1,0.5689655172413799,1
1,1,0.6153846153846151,1
1,1,0.5614035087719306,1
1,1,0.6400000000000005,1
1,1,0.6610169491525426,1
1,1,0.6785714285714287,1
1,1,0.6071428571428568,1
1,1,0.6857142857142854,1
1,1,0.43859649122806965,1
1,1,0.5384615384615385,1
1,1,0.6944444444444443,1
1,1,0.6363636363636366,1
1,1,0.7419354838709679,1
1,1,0.7708333333333331,1
1,1,0.8222222222222219,1
1,1,0.4528301886792455,1
1,1,0.45454545454545486,1
1,1,0.41666666666666685,1
1,1,0.4,1
1,1,0.4249999999999999,1
1,1,0.5416666666666669,1
1,1,0.7872340425531915,1
1,1,0.7222222222222228,1
1,1,0.7093023255813955,1
1,1,0.6987951807228916,1
1,1,0.4814814814814813,1
1,1,0.7200000000000003,1
1,1,0.7301587301587305,1
1,1,0.7931034482758627,1
1,1,0.6111111111111113,1
1,1,0.7800000000000001,1
1,1,0.5161290322580645,1
1,1,0.6612903225806451,1
1,1,0.49056603773584884,1
1,1,0.551020408163265,1
1,1,0.6071428571428575,1
1,1,0.4791666666666669,1
1,1,0.5696202531645568,1
1,1,0.46666666666666645,1
1,1,0.5806451612903221,1
1,1,0.7553191489361707,1
1,1,0.7096774193548393,1
1,1,0.7346938775510214,1
1,1,0.6777777777777775,1
1,1,0.6477272727272719,1
1,1,0.6265060240963863,1
1,1,0.620253164556962,1
1,1,0.5208333333333333,1
1,1,0.7450980392156857,1
1,1,0.765625,1
1,1,0.6774193548387099,1
1,1,0.3499999999999997,1
1,1,0.5454545454545451,1
1,1,0.4939759036144576,1
1,1,0.4499999999999998,1
1,1,0.41095890410958935,1
1,1,0.4000000000000006,1
1,1,0.4385964912280694,1
1,1,0.6279069767441854,1
1,1,0.7959183673469389,1
1,1,0.7999999999999994,1
1,1,0.6881720430107522,1
1,1,0.7333333333333332,1
1,1,0.6781609195402306,1
1,1,0.6867469879518072,1
1,1,0.7088607594936717,1
1,1,0.5277777777777782,1
1,1,0.6091954022988504,1
1,1,0.6190476190476183,1
1,1,0.684210526315789,1
1,1,0.26666666666666705,1
1,1,0.5588235294117655,1
1,1,0.6774193548387092,1
1,1,0.6379310344827595,1
1,1,0.6734693877551028,1
1,1,0.6451612903225805,1
1,1,0.6101694915254238,1
0.9347826086956523,1,0.5692307692307693,1
0.904761904761905,1,0.49206349206349204,1
1,1,0.6962025316455693,1
0.8947368421052628,1,0.43548387096774194,1
0.9117647058823526,1,0.3898305084745763,1
1,1,0.6625000000000003,1
0.9666666666666665,1,0.35714285714285715,1
1,1,0.7123287671232881,1
1,1,0.34615384615384626,1
1,1,0.3469387755102042,1
1,1,0.6756756756756763,1
1,1,0.7246376811594197,1
1,1,0.6702127659574464,1
1,1,0.6413043478260876,1
1,1,0.5057471264367821,1
1,1,0.5747126436781612,1
1,1,0.46987951807228867,1
1,1,0.5421686746987949,1
1,1,0.46835443037974656,1
1,1,0.459459459459459,1
1,1,0.5270270270270274,1
1,1,0.46376811594202977,1
1,1,0.5079365079365078,1
1,1,0.5806451612903234,1
1,1,0.44230769230769207,1
1,1,0.6714285714285712,1
1,1,0.6470588235294125,1
1,1,0.45714285714285663,1
1,1,0.6075949367088613,1
1,1,0.6199999999999992,1
1,1,0.583333333333333,1
1,1,0.6162790697674412,1
1,1,0.630952380952381,1
1,1,0.4285714285714293,1
1,1,0.7213114754098362,1
1,1,0.7118644067796609,1
1,1,0.6615384615384616,1
1,1,0.619047619047619,1
1,1,0.6507936507936509,1
1,1,0.596774193548387,1
1,1,0.6206896551724139,1
1,1,0.5892857142857143,1
1,1,0.6307692307692306,1
1,1,0.532258064516129,1
1,1,0.509433962264151,1
1,1,0.5306122448979592,1
1,1,0.5333333333333331,1
1,1,0.796875,1
1,1,0.5535714285714292,1
1,1,0.7580645161290321,1
1,1,0.7457627118644067,1
1,1,0.6170212765957442,1
1,1,0.7321428571428572,1
1,1,0.551724137931034,1
1,1,0.5949367088607599,1
1,1,0.5301204819277114,1
1,1,0.6133333333333337,1
1,1,0.6559139784946241,1
1,1,0.5405405405405399,1
1,1,0.5849056603773581,1
1,1,0.6363636363636358,1
1,1,0.5967741935483872,1
1,1,0.6428571428571427,1
1,1,0.6708860759493673,1
1,1,0.14864864864864893,1
1,1,0.5967741935483868,1
1,1,0.7027027027027021,1
1,1,0.5681818181818179,1
1,1,0.705882352941176,1
0.818181818181819,1,0.5894736842105266,1
0.7945205479452063,1,0.5425531914893621,1
1,1,0.5111111111111116,1
0.7826086956521737,1,0.4893617021276603,1
0.7692307692307697,1,0.44565217391304357,1
0.7833333333333333,1,0.4111111111111105,1
0.7962962962962972,1,0.3720930232558138,1
0.8367346938775515,1,0.3493975903614466,1
1,1,0.5599999999999996,1
1,1,0.6599999999999996,1
0.9047619047619048,1,0.3374999999999998,1
1,1,0.3650793650793652,1
1,1,0.42857142857142927,1
1,1,0.2753623188405802,1
1,1,0.5102040816326525,1
1,1,0.6428571428571429,1
0.9285714285714284,1,0.5499999999999998,1
1,1,0.686274509803921,1
0.9538461538461537,1,0.576086956521739,1
1,1,0.5714285714285715,1
1,1,0.5542168674698794,1
1,1,0.45714285714285735,1
1,1,0.5249999999999999,1
1,1,0.6236559139784952,1
1,1,0.6111111111111116,1
1,1,0.5172413793103455,1
1,1,0.6153846153846159,1
1,1,0.6923076923076921,1
1,1,0.6346153846153849,1
1,1,0.4464285714285706,1
0.05128205128205111,1,0.1551724137931035,0
1,1,0.20289855072463805,1
1,1,0.4888888888888889,1
1,1,0.7934782608695657,1
1,1,0.7471264367816091,1
1,1,0.7837837837837843,1
1,1,0.5142857142857143,1
1,1,0.6849315068493145,1
0.9411764705882354,1,0.4067796610169493,1
0.9666666666666665,1,0.375,1
1,1,0.36363636363636365,1
1,1,0.5287356321839083,1
1,1,0.48809523809523836,1
1,1,0.46666666666666656,1
1,1,0.4782608695652182,1
1,1,0.7906976744186042,1
1,1,0.5468749999999999,1
1,1,0.4166666666666672,1
1,1,0.6857142857142859,1
1,1,0.7169811320754721,1
1,1,0.7083333333333337,1
1,1,0.7777777777777775,1
1,1,0.7111111111111108,1
1,1,0.6031746031746033,1
1,1,0.6777777777777771,1
1,1,0.6785714285714292,1
1,1,0.26666666666666644,1
1,1,0.6455696202531651,1
1,1,0.71875,1
1,1,0.6774193548387097,1
1,1,0.6610169491525424,1
1,1,0.5405405405405412,1
1,1,0.663043478260869,1
0.9387755102040818,1,0.508771929824561,1
0.9130434782608698,1,0.5384615384615387,1
0.8604651162790699,1,0.46875,1
0.846153846153846,1,0.40983606557377056,1
1,1,0.7260273972602731,1
0.8571428571428571,1,0.35593220338983045,1
0.9000000000000002,1,0.3272727272727274,1
1,1,0.320754716981132,1
1,1,0.3333333333333335,1
1,1,0.375,1
0.9855072463768114,1,0.6489361702127657,1
1,1,0.6304347826086952,1
1,1,0.647058823529412,1
1,1,0.5888888888888884,1
1,1,0.6455696202531638,1
1,1,0.518072289156627,1
1,1,0.5063291139240502,1
1,1,0.6612903225806448,1
1,1,0.5072463768115935,1
1,1,0.7142857142857139,1
1,1,0.6413043478260874,1
1,1,0.6984126984126985,1
1,1,0.6885245901639344,1
1,1,0.6949152542372883,1
1,1,0.7142857142857144,1
1,1,0.5977011494252872,1
1,1,0.6144578313253019,1
1,1,0.621212121212121,1
1,1,0.6375000000000007,1
1,1,0.5873015873015872,1
1,1,0.5874999999999998,1
1,1,0.594936708860759,1
1,1,0.5517241379310344,1
1,1,0.5087719298245612,1
1,1,0.7011494252873558,1
0.9855072463768114,1,0.5999999999999998,1
1,1,0.710843373493976,1
0.9534883720930232,1,0.5312500000000001,1
1,1,0.6021505376344091,1
0.9736842105263156,1,0.4838709677419355,1
1,1,0.5697674418604648,1
1,1,0.571428571428572,1
1,1,0.6986301369863013,1
1,1,0.6086956521739135,1
1,1,0.5632183908045978,1
1,1,0.5595238095238093,1
1,1,0.6315789473684219,1
1,1,0.5124999999999997,1
1,1,0.5200000000000004,1
1,1,0.5441176470588241,1
1,1,0.7199999999999995,1
1,1,0.6666666666666665,1
1,1,0.7608695652173906,1
1,1,0.6274509803921563,1
1,1,0.7241379310344831,1
1,1,0.2941176470588241,1
1,1,0.7228915662650605,1
1,1,0.7307692307692308,1
1,1,0.7567567567567568,1
1,1,0.7971014492753621,1
0.9718309859154936,1,0.5499999999999998,1
1,1,0.6195652173913044,1
0.9710144927536228,1,0.6236559139784938,1
1,1,0.7543859649122812,1
0.984615384615385,1,0.6021505376344092,1
1,1,0.602272727272727,1
1,1,0.5777777777777772,1
1,1,0.7014925373134328,1
1,1,0.5747126436781617,1
0.9782608695652176,1,0.6,1
1,1,0.5783132530120482,1
0.9285714285714286,1,0.5,1
1,1,0.59493670886076,1
0.8684210526315793,1,0.41935483870967727,1
0.8529411764705884,1,0.35593220338983045,1
0.8666666666666666,1,0.3035714285714284,1
1,1,0.5616438356164387,1
0.9200000000000002,1,0.26923076923076933,1
1,1,0.25,1
0.9324324324324329,1,0.26666666666666644,1
0.8714285714285716,1,0.2999999999999997,1
0.8307692307692313,1,0.3714285714285714,1
0.8,1,0.4222222222222218,1
0.7777777777777782,1,0.36363636363636415,1
0.7551020408163264,1,0.3012048192771086,1
0.7441860465116271,1,0.25,1
0.7777777777777785,1,0.20270270270270296,1
1,1,0.5161290322580652,1
0.8928571428571418,1,0.17391304347826117,1
1,1,0.17460317460317387,1
1,1,0.17857142857142944,1
1,1,0.20408163265306223,1
1,1,0.30952380952380953,1
1,1,0.48571428571428654,1
1,1,0.7857142857142864,1
1,1,0.46153846153846134,1
1,1,0.4081632653061225,1
1,1,0.38636363636363624,1
1,1,0.6101694915254233,1
1,1,0.6129032258064517,1
1,1,0.596153846153846,1
1,1,0.5918367346938779,1
1,1,0.3174603174603183,1
1,1,0.6000000000000002,1
0.9565217391304344,1,0.5499999999999998,1
0.9692307692307689,1,0.5806451612903225,1
1,1,0.5555555555555551,1
1,1,0.5866666666666669,1
1,1,0.564102564102564,1
1,1,0.6944444444444449,1
1,1,0.23188405797101488,1
1,1,0.4444444444444446,1
1,1,0.716981132075472,1
1,1,0.692307692307692,1
1,1,0.6506024096385535,1
1,1,0.6749999999999994,1
1,1,0.525,1
1,1,0.6363636363636367,1
1,1,0.6774193548387102,1
1,1,0.4736842105263155,1
1,1,0.6091954022988505,1
1,1,0.5696202531645577,1
1,1,0.6530612244897961,1
0.9347826086956523,1,0.5538461538461539,1
0.8837209302325578,1,0.484375,1
0.8717948717948717,1,0.4193548387096774,1
1,1,0.5747126436781604,1
0.8823529411764706,1,0.3728813559322035,1
1,1,0.7179487179487181,1
0.9333333333333339,1,0.33928571428571436,1
1,1,0.3265306122448978,1
1,1,0.693333333333334,1
1,1,0.3555555555555555,1
1,1,0.39999999999999986,1
1,1,0.6533333333333331,1
1,1,0.6857142857142849,1
1,1,0.4750000000000003,1
1,1,0.47297297297297264,1
1,1,0.6935483870967745,1
1,1,0.6847826086956514,1
1,1,0.38461538461538397,1
1,1,0.5490196078431375,1
0.9459459459459467,1,0.6595744680851067,1
1,1,0.7049180327868853,1
0.9848484848484854,1,0.6021505376344092,1
1,1,0.5833333333333327,1
1,1,0.672727272727273,1
1,1,0.6164383561643841,1
1,1,0.7701149425287359,1
1,1,0.7619047619047619,1
1,1,0.5753424657534237,1
1,1,0.7721518987341764,1
1,1,0.6323529411764707,1
1,1,0.6835443037974684,1
1,1,0.5857142857142855,1
1,1,0.7391304347826082,1
1,1,0.793650793650793,1
1,1,0.6511627906976739,1
1,1,0.662650602409639,1
1,1,0.7162162162162167,1
1,1,0.6621621621621623,1
1,1,0.7101449275362316,1
0.9565217391304346,1,0.5692307692307693,1
0.8571428571428572,1,0.46031746031746046,1
0.7948717948717947,1,0.377049180327869,1
0.7428571428571424,1,0.30508474576271166,1
1,1,0.6279069767441863,1
0.7333333333333333,1,0.23214285714285718,1
0.7307692307692305,1,0.18867924528301863,1
0.8095238095238093,1,0.14583333333333315,1
0.7567567567567565,1,0.13333333333333353,1
1,1,0.59375,1
1,1,0.7192982456140358,1
0.6521739130434777,1,0.1500000000000003,1
0.5538461538461537,1,0.17142857142857115,1
0.45,1,0.18888888888888838,1
0.34545454545454585,1,0.09090909090909106,1
0.20833333333333356,1,1,0
1,1,0.5283018867924529,1
1,1,0.5555555555555554,1
1,1,0.2898550724637686,1
1,1,0.3809523809523809,1
1,1,0.5641025641025643,1
0.9130434782608698,1,0.5499999999999998,1
1,1,0.6081081081081084,1
1,1,0.8163265306122449,1
1,1,0.7884615384615388,1
1,1,0.7692307692307692,1
1,1,0.7551020408163259,1
1,1,0.8125,1
1,1,0.7551020408163267,1
1,1,0.755555555555556,1
1,1,0.6607142857142857,1
1,1,0.8249999999999994,1
1,1,0.5499999999999997,1
1,1,0.45000000000000034,1
1,1,0.07692307692307661,0
0.025641025641025553,1,0.12068965517241365,0
0.03896103896103851,1,0.1551724137931035,0
1,1,0.3181818181818184,1
1,1,0.4545454545454548,1
1,1,0.7727272727272724,1
1,1,0.7727272727272725,1
1,1,0.6842105263157892,1
1,1,0.7555555555555551,1
1,1,0.7717391304347827,1
1,1,0.7341772151898728,1
1,1,0.7011494252873569,1
1,1,0.7702702702702706,1
1,1,0.6746987951807225,1
1,1,0.7466666666666665,1
1,1,0.8115942028985504,1
1,1,0.7428571428571431,1
1,1,0.7536231884057968,1
1,1,0.5119047619047619,1
1,1,0.5063291139240512,1
1,1,0.8070175438596494,1
0.8695652173913045,1,0.5151515151515152,1
1,1,0.7741935483870971,1
1,1,0.5540540540540547,1
0.7380952380952381,1,0.375,1
0.6052631578947372,1,0.2580645161290321,1
0.5,1,0.15254237288135605,1
1,1,0.8245614035087712,1
0.4000000000000002,1,0.07142857142857162,1
0.3199999999999996,0.9538461538461535,1,0
1,1,0.7500000000000001,1
1,1,0.8035714285714293,1
0.8979591836734694,1,0.4821428571428569,1
0.8260869565217388,1,0.49230769230769217,1
0.6923076923076927,1,0.3064516129032257,1
1,1,0.7368421052631576,1
0.6470588235294116,1,0.23728813559322018,1
0.6333333333333333,1,0.17857142857142835,1
0.6400000000000001,1,0.13207547169811348,1
1,1,0.8235294117647062,1
0.6999999999999997,1,0.10204081632653074,1
0.8356164383561641,1,0.08888888888888902,1
1,1,0.4545454545454546,1
1,1,0.7868852459016391,1
0.739130434782609,1,0.07500000000000015,1
1,1,0.7796610169491526,1
0.9767441860465115,1,0.5396825396825397,1
0.6461538461538463,1,0.11428571428571452,1
1,1,0.7857142857142856,1
1,1,0.4918032786885246,1
0.55,1,0.20000000000000004,1
1,1,0.8113207547169814,1
0.46296296296296324,1,0.17045454545454553,1
0.3673469387755104,1,0.07228915662650627,1
0.23809523809523805,1,1,0
1,1,0.6428571428571435,1
1,1,0.6329113924050636,1
1,1,0.7368421052631582,1
1,1,0.7555555555555554,1
1,1,0.7857142857142863,1
1,1,0.7959183673469379,1
1,1,0.8205128205128207,1
1,1,0.8297872340425534,1
1,1,0.7755102040816331,1
1,1,0.7816091954022982,1
1,1,0.7222222222222218,1
1,1,0.7710843373493972,1
1,1,0.689655172413793,1
1,1,0.7749999999999997,1
1,1,0.6746987951807233,1
1,1,0.581081081081081,1
0.8550724637681154,1,0.4749999999999998,1
0.8307692307692313,1,0.47826086956521735,1
1,1,0.6891891891891889,1
1,1,0.6451612903225812,1
0.8166666666666668,1,0.43333333333333335,1
1,1,0.7391304347826083,1
0.8148148148148153,1,0.37931034482758597,1
1,1,0.8095238095238086,1
0.8163265306122449,1,0.34523809523809507,1
0.8571428571428562,1,0.30379746835443067,1
1,1,0.6075949367088604,1
0.944444444444445,1,0.2739726027397268,1
1,1,0.8214285714285705,1
1,1,0.2714285714285722,1
1,1,0.28571428571428525,1
1,1,0.7719298245614035,1
1,1,0.3157894736842101,1
1,1,0.3800000000000006,1
1,1,0.4883720930232569,1
1,1,0.5348837209302315,1
1,1,0.6379310344827596,1
1,1,0.46428571428571375,1
1,1,0.7692307692307694,1
1,1,0.7222222222222224,1
1,1,0.8163265306122446,1
1,1,0.5208333333333337,1
1,1,0.6949152542372878,1
1,1,0.547169811320755,1
1,1,0.6730769230769227,1
1,1,0.7222222222222225,1
1,1,0.6041666666666663,1
1,1,0.7903225806451611,1
1,1,0.7966101694915254,1
1,1,0.7333333333333334,1
1,1,0.4318181818181815,1
1,1,0.7444444444444439,1
1,1,0.7356321839080454,1
1,1,0.7380952380952382,1
1,1,0.783783783783783,1
1,1,0.7027027027027022,1
1,1,0.7974683544303791,1
1,1,0.8101265822784802,1
1,1,0.44444444444444386,1
1,1,0.7599999999999995,1
1,1,0.3541666666666663,1
1,1,0.7297297297297302,1
1,1,0.7681159420289851,1
0.9069767441860465,1,0.5,1
0.9687499999999999,1,0.576086956521739,1
1,1,0.8095238095238088,1
1,1,0.5517241379310353,1
0.9000000000000002,1,0.3214285714285716,1
1,1,0.5595238095238101,1
0.9615384615384613,1,0.30188679245283023,1
1,1,0.29166666666666646,1
1,1,0.5945945945945944,1
1,1,0.311111111111111,1
1,1,0.5342465753424652,1
1,1,0.42857142857142866,1
1,1,0.640625,1
1,1,0.5348837209302332,1
1,1,0.5072463768115933,1
1,1,0.5063291139240503,1
1,1,0.24528301886792447,1
1,1,0.5135135135135133,1
1,1,0.4920634920634921,1
1,1,0.5294117647058827,1
1,1,0.2307692307692312,1
1,1,0.7575757575757575,1
1,1,0.491228070175439,1
1,1,0.7011494252873567,1
1,1,0.7450980392156855,1
1,1,0.2307692307692307,1
1,1,0.7551020408163265,1
1,1,0.8222222222222222,1
0.9767441860465117,1,0.5468749999999999,1
1,1,0.22641509433962212,1
1,1,0.7058823529411771,1
1,1,0.7777777777777779,1
1,1,0.7586206896551718,1
1,1,0.8250000000000003,1
1,1,0.7254901960784312,1
1,1,0.8152173913043472,1
1,1,0.2264150943396225,1
1,1,0.7777777777777785,1
1,1,0.7586206896551725,1
1,1,0.7469879518072292,1
1,1,0.2115384615384613,1
1,1,0.6282051282051289,1
1,1,0.7733333333333341,1
0.9142857142857139,1,0.4749999999999998,1
1,1,0.6621621621621628,1
1,1,0.8260869565217389,1
0.9076923076923076,1,0.537634408602151,1
0.9245283018867916,1,0.4418604651162793,1
1,1,0.3846153846153847,1
1,1,0.21153846153846134,1
1,1,0.3783783783783792,1
1,1,0.8070175438596492,1
1,1,0.37681159420289917,1
1,1,0.4126984126984122,1
1,1,0.2075471698113209,1
1,1,0.5399999999999996,1
1,1,0.7142857142857136,1
1,1,0.4600000000000002,1
1,1,0.5952380952380953,1
1,1,0.27272727272727326,1
1,1,0.19999999999999984,1
1,1,0.7755102040816323,1
1,1,0.6881720430107527,1
1,1,0.2727272727272723,1
1,1,0.6162790697674422,1
1,1,0.5952380952380956,1
1,1,0.5949367088607591,1
1,1,0.30000000000000016,1
1,1,0.7692307692307689,1
1,1,0.33333333333333287,1
1,1,0.567567567567567,1
1,1,0.3636363636363633,1
1,1,0.8285714285714287,1
1,1,0.41666666666666713,1
1,1,0.47222222222222243,1
0.9857142857142855,1,0.5250000000000002,1
0.9692307692307689,1,0.5869565217391308,1
1,1,0.4571428571428573,1
0.95,1,0.5222222222222218,1
0.9814814814814811,1,0.48863636363636415,1
1,1,0.457831325301205,1
1,1,0.6779661016949149,1
1,1,0.42307692307692313,1
1,1,0.6964285714285713,1
1,1,0.41333333333333405,1
1,1,0.42028985507246447,1
1,1,0.44444444444444514,1
1,1,0.7916666666666669,1
1,1,0.7954545454545454,1
1,1,0.5600000000000006,1
1,1,0.593220338983051,1
1,1,0.6571428571428573,1
1,1,0.5769230769230775,1
1,1,0.6122448979591837,1
1,1,0.7272727272727267,1
1,1,0.368421052631579,1
1,1,0.4444444444444448,1
1,1,0.6071428571428573,1
1,1,0.7384615384615385,1
1,1,0.45000000000000023,1
1,1,0.5660377358490569,1
1,1,0.5263157894736848,1
1,1,0.7272727272727276,1
1,1,0.5208333333333335,1
1,1,0.8095238095238102,1
1,1,0.7619047619047626,1
1,1,0.8076923076923077,1
1,1,0.7179487179487173,1
1,1,0.7272727272727281,1
1,1,0.7261904761904764,1
1,1,0.7468354430379752,1
1,1,0.3703703703703703,1
1,1,0.7808219178082184,1
1,1,0.4074074074074076,1
1,1,0.7974683544303796,1
1,1,0.7758620689655173,1
1,1,0.4444444444444442,1
1,1,0.7352941176470587,1
1,1,0.5662650602409639,1
0.930232558139535,1,0.515625,1
1,1,0.7888888888888884,1
0.9210526315789471,1,0.4516129032258064,1
1,1,0.5316455696202524,1
0.9142857142857143,1,0.4067796610169493,1
1,1,0.7088607594936706,1
1,1,0.3396226415094338,1
1,1,0.7285714285714278,1
1,1,0.7948717948717946,1
1,1,0.7956989247311828,1
1,1,0.464285714285714,1
1,1,0.48148148148148145,1
1,1,0.5119047619047616,1
1,1,0.7341772151898741,1
1,1,0.4864864864864867,1
1,1,0.7941176470588241,1
1,1,0.709677419354839,1
0.9555555555555558,1,0.5692307692307693,1
0.9285714285714287,1,0.5079365079365081,1
0.9230769230769229,1,0.45901639344262285,1
0.9705882352941179,1,0.42372881355932196,1
1,1,0.41071428571428553,1
1,1,0.40384615384615374,1
1,1,0.799999999999999,1
1,1,0.5199999999999996,1
1,1,0.2941176470588238,1
1,1,0.3055555555555558,1
1,1,0.3142857142857143,1
1,1,0.3142857142857144,1
0.905405405405406,1,0.6315789473684211,1
0.914285714285715,1,0.591397849462366,1
0.9230769230769227,1,0.5543478260869561,1
0.95,1,0.5222222222222229,1
1,1,0.8055555555555558,1
1,1,0.48192771084337416,1
1,1,0.3235294117647062,1
0.9782608695652176,1,0.5909090909090909,1
1,1,0.4874999999999994,1
0.9761904761904762,1,0.5396825396825397,1
1,1,0.5081967213114753,1
1,1,0.4915254237288138,1
1,1,0.49056603773584895,1
1,1,0.6388888888888888,1
1,1,0.6599999999999991,1
1,1,0.5737704918032783,1
0.9710144927536228,1,0.5499999999999998,1
1,1,0.3333333333333331,1
1,1,0.5283018867924528,1
1,1,0.5405405405405411,1
1,1,0.7441860465116277,1
1,1,0.5800000000000005,1
0.8985507246376808,1,0.5250000000000002,1
0.8636363636363634,1,0.5106382978723398,1
0.8363636363636355,1,0.3977272727272731,1
1,1,0.7678571428571428,1
1,1,0.3428571428571431,1
1,1,0.2857142857142863,1
1,1,0.32653061224489704,1
1,1,0.4761904761904761,1
1,1,0.7173913043478255,1
1,1,0.6888888888888884,1
1,1,0.34285714285714286,1
1,1,0.6477272727272729,1
1,1,0.21428571428571416,1
1,1,0.23255813953488377,1
1,1,0.7543859649122813,1
1,1,0.2093023255813954,1
1,1,0.2142857142857143,1
1,1,0.5833333333333328,1
1,1,0.015384615384615491,0
1,1,0.4285714285714284,1
1,1,0.14000000000000015,1
1,1,0.12244897959183693,1
1,1,0.14,1
1,1,0.7875000000000004,1
1,1,0.1428571428571429,1
1,1,0.7526881720430108,1
1,1,0.7671232876712335,1
1,1,0.1372549019607842,1
1,1,0.8103448275862063,1
1,1,0.803030303030303,1
1,1,0.6557377049180331,1
1,1,0.6885245901639345,1
1,1,0.12,1
1,1,0.744444444444445,1
1,1,0.4722222222222217,1
1,1,0.6896551724137933,1
1,1,0.6506024096385546,1
1,1,0.8181818181818185,1
1,1,0.07142857142857144,1
1,1,0.7126436781609192,1
1,1,0.7023809523809527,1
1,1,0.11999999999999965,1
1,1,0.7794117647058829,1
1,1,0.07017543859649114,1
1,1,0.05357142857142856,1
1,1,0.771929824561403,1
1,1,0.05263157894736812,1
1,1,0.5409836065573771,1
1,1,0.06896551724137935,1
1,1,0.4603174603174608,1
1,1,0.5512820512820519,1
1,1,0.0526315789473687,1
1,1,0.5200000000000005,1
1,1,0.5147058823529413,1
1,1,0.035714285714285844,1
1,1,0.5714285714285711,1
1,1,0.0,1
1,1,0.04225352112676057,0
1,1,0.775,1
1,1,0.5256410256410261,1
1,1,0.6438356164383561,1